<?xml version="1.0" encoding="UTF-8"?>
<COLLADA xmlns="http://www.collada.org/2005/11/COLLADASchema" version="1.4.1">
 <asset>
  <contributor>
   <authoring_tool>SceneKit Collada Exporter v1.0</authoring_tool>
  </contributor>
  <created>2015-02-03T20:33:31Z</created>
  <modified>2015-02-03T20:33:31Z</modified>
  <up_axis>Z_UP</up_axis>
 </asset>
 <library_cameras>
  <camera id="Camera-camera" name="Camera_001">
   <optics>
    <technique_common>
     <perspective>
      <xfov>49.1343</xfov>
      <znear>0.1</znear>
      <zfar>100</zfar>
     </perspective>
    </technique_common>
   </optics>
   <extra>
    <technique profile="SceneKit">
     <depth_of_field>
      <focal_depth>10</focal_depth>
      <sample_radius>0</sample_radius>
      <focal_size>0</focal_size>
      <focal_aperture>0.125</focal_aperture>
     </depth_of_field>
    </technique>
   </extra>
  </camera>
 </library_cameras>
 <library_lights>
  <light id="Lamp-light" name="Lamp_001">
   <technique_common>
    <point>
     <color>1 1 1</color>
     <constant_attenuation>0</constant_attenuation>
     <linear_attenuation>0</linear_attenuation>
     <quadratic_attenuation>1</quadratic_attenuation>
    </point>
   </technique_common>
   <extra>
    <technique profile="SceneKit">
     <attenuationStart>0</attenuationStart>
     <attenuationEnd>0</attenuationEnd>
     <attenuationFalloffExponent>2</attenuationFalloffExponent>
    </technique>
   </extra>
  </light>
  <light id="Point_002-light" name="Point_002">
   <technique_common>
    <point>
     <color>1 1 1</color>
     <constant_attenuation>0</constant_attenuation>
     <linear_attenuation>0</linear_attenuation>
     <quadratic_attenuation>1</quadratic_attenuation>
    </point>
   </technique_common>
   <extra>
    <technique profile="SceneKit">
     <attenuationStart>0</attenuationStart>
     <attenuationEnd>0</attenuationEnd>
     <attenuationFalloffExponent>2</attenuationFalloffExponent>
    </technique>
   </extra>
  </light>
  <light id="Point_003-light" name="Point_003">
   <technique_common>
    <point>
     <color>1 1 1</color>
     <constant_attenuation>0</constant_attenuation>
     <linear_attenuation>0</linear_attenuation>
     <quadratic_attenuation>1</quadratic_attenuation>
    </point>
   </technique_common>
   <extra>
    <technique profile="SceneKit">
     <attenuationStart>0</attenuationStart>
     <attenuationEnd>0</attenuationEnd>
     <attenuationFalloffExponent>2</attenuationFalloffExponent>
    </technique>
   </extra>
  </light>
  <light id="Point_004-light" name="Point_004">
   <technique_common>
    <point>
     <color>1 1 1</color>
     <constant_attenuation>0</constant_attenuation>
     <linear_attenuation>0</linear_attenuation>
     <quadratic_attenuation>1</quadratic_attenuation>
    </point>
   </technique_common>
   <extra>
    <technique profile="SceneKit">
     <attenuationStart>0</attenuationStart>
     <attenuationEnd>0</attenuationEnd>
     <attenuationFalloffExponent>2</attenuationFalloffExponent>
    </technique>
   </extra>
  </light>
 </library_lights>
 <library_images>
  <image id="image1">
   <init_from>iceberg.png</init_from>
  </image>
  <image id="image2">
   <init_from>slope.png</init_from>
  </image>
  <image id="image3">
   <init_from>cube.png</init_from>
  </image>
 </library_images>
 <library_materials>
  <material id="iceberg-material" name="iceberg">
   <instance_effect url="#effect_iceberg-material"/>
  </material>
  <material id="slope-material" name="slope">
   <instance_effect url="#effect_slope-material"/>
  </material>
  <material id="cube-material" name="cube">
   <instance_effect url="#effect_cube-material"/>
  </material>
 </library_materials>
 <library_effects>
  <effect id="effect_iceberg-material">
   <profile_COMMON>
    <newparam sid="ID4_image1_surface">
     <surface type="2D">
      <init_from>image1</init_from>
     </surface>
    </newparam>
    <newparam sid="ID4_image1">
     <sampler2D>
      <source>ID4_image1_surface</source>
      <wrap_s>CLAMP</wrap_s>
      <wrap_t>CLAMP</wrap_t>
      <minfilter>LINEAR</minfilter>
      <magfilter>LINEAR</magfilter>
      <mipfilter>NONE</mipfilter>
     </sampler2D>
    </newparam>
    <technique sid="common">
     <constant>
      <reflective>
       <color>0 0 0 1</color>
      </reflective>
      <transparent opaque="A_ONE">
       <color>1 1 1 1</color>
      </transparent>
      <transparency>
       <float>1</float>
      </transparency>
     </constant>
     <extra>
      <technique profile="SceneKit">
       <constant_ambient>
        <color>0 0 0 1</color>
       </constant_ambient>
       <constant_diffuse>
        <texture texture="ID4_image1" texcoord="CHANNEL2"/>
       </constant_diffuse>
      </technique>
     </extra>
    </technique>
   </profile_COMMON>
   <extra>
    <technique profile="SceneKit">
     <litPerPixel>1</litPerPixel>
     <ambient_diffuse_lock>1</ambient_diffuse_lock>
    </technique>
   </extra>
  </effect>
  <effect id="effect_slope-material">
   <profile_COMMON>
    <newparam sid="ID5_image2_surface">
     <surface type="2D">
      <init_from>image2</init_from>
     </surface>
    </newparam>
    <newparam sid="ID5_image2">
     <sampler2D>
      <source>ID5_image2_surface</source>
      <wrap_s>CLAMP</wrap_s>
      <wrap_t>CLAMP</wrap_t>
      <minfilter>LINEAR</minfilter>
      <magfilter>LINEAR</magfilter>
      <mipfilter>NONE</mipfilter>
     </sampler2D>
    </newparam>
    <technique sid="common">
     <phong>
      <ambient>
       <color>0 0 0 1</color>
      </ambient>
      <diffuse>
       <texture texture="ID5_image2" texcoord="CHANNEL2"/>
      </diffuse>
      <specular>
       <color>0.5 0.5 0.5 1</color>
      </specular>
      <shininess>
       <float>50</float>
      </shininess>
      <reflective>
       <color>0 0 0 1</color>
      </reflective>
      <transparent opaque="A_ONE">
       <color>1 1 1 1</color>
      </transparent>
      <transparency>
       <float>1</float>
      </transparency>
      <index_of_refraction>
       <float>1</float>
      </index_of_refraction>
     </phong>
    </technique>
   </profile_COMMON>
   <extra>
    <technique profile="SceneKit">
     <litPerPixel>1</litPerPixel>
     <ambient_diffuse_lock>1</ambient_diffuse_lock>
    </technique>
   </extra>
  </effect>
  <effect id="effect_cube-material">
   <profile_COMMON>
    <newparam sid="ID6_image3_surface">
     <surface type="2D">
      <init_from>image3</init_from>
     </surface>
    </newparam>
    <newparam sid="ID6_image3">
     <sampler2D>
      <source>ID6_image3_surface</source>
      <wrap_s>CLAMP</wrap_s>
      <wrap_t>CLAMP</wrap_t>
      <minfilter>LINEAR</minfilter>
      <magfilter>LINEAR</magfilter>
      <mipfilter>NONE</mipfilter>
     </sampler2D>
    </newparam>
    <technique sid="common">
     <phong>
      <ambient>
       <color>0 0 0 1</color>
      </ambient>
      <diffuse>
       <texture texture="ID6_image3" texcoord="CHANNEL2"/>
      </diffuse>
      <specular>
       <color>0.5 0.5 0.5 1</color>
      </specular>
      <shininess>
       <float>50</float>
      </shininess>
      <reflective>
       <color>0 0 0 1</color>
      </reflective>
      <transparent opaque="A_ONE">
       <color>1 1 1 1</color>
      </transparent>
      <transparency>
       <float>1</float>
      </transparency>
      <index_of_refraction>
       <float>1</float>
      </index_of_refraction>
     </phong>
    </technique>
   </profile_COMMON>
   <extra>
    <technique profile="SceneKit">
     <litPerPixel>1</litPerPixel>
     <ambient_diffuse_lock>1</ambient_diffuse_lock>
    </technique>
   </extra>
  </effect>
 </library_effects>
 <library_geometries>
  <geometry id="Icosphere-mesh" name="Icosphere">
   <mesh>
    <source id="Icosphere-mesh-positions">
     <float_array id="ID7-array" count="2556">0 0 -1.70378 0.212661 -0.154506 -2.73473 0.0986613 -0.249998 -0.944331 0.723607 -0.525725 -0.65454 0.574465 -0.417368 -3.98452 0.787128 -0.262863 -0.927107 0 0 -1.70378 0.0986613 -0.249998 -0.944331 -0.265919 0.0187283 -7.80131 0 0 -1.70378 -0.265919 0.0187283 -7.80131 -0.0812278 0.249998 -5.6721 0 0 -1.70378 -0.0812278 0.249998 -5.6721 0.212661 0.154506 -0.925327 0.787128 -0.262863 -0.927107 0.850648 0 -0.525736 0.830715 -0.309013 0 -0.00675958 -0.82983 -0.486479 0.262869 -0.809012 -0.525738 0 -1 0 -0.791308 -0.249998 -0.561588 -0.674931 -0.423351 -1.68627 -0.951058 -0.309013 -0.0219775 -0.482289 0.675323 -2.77306 -0.688189 0.513171 -2.08754 -0.587786 0.809017 -0.0919216 0.493238 0.667368 -1.26456 0.262869 0.809012 -0.525738 0.670378 0.870182 0 0.723607 -0.525725 -0.65454 0.830715 -0.309013 0 0.440699 -0.809017 0 -0.276388 -0.850649 -0.455557 0 -1 0 -0.587786 -0.809017 -0.0943112 -0.894426 0.00011627 -0.761097 -0.951058 -0.309013 -0.0219775 -0.951058 0.309132 -0.270314 -0.276388 0.850649 -0.455345 -0.587786 0.809017 -0.0919216 0 1 0 0.723607 0.525725 -0.447219 0.670378 0.870182 0 1.01521 0.379569 0 0.931811 -0.0065403 2.47123 0.974469 0 0.447216 0.926551 0.115895 2.18032 -0.742453 -0.525725 0.214415 -0.622851 -0.667368 0.612906 -0.574465 -0.417368 0.644513 -0.730764 0.526175 0.294101 -0.896254 0.263088 0.275519 -0.574465 0.424642 0.628844 0.237228 0.967318 0.579393 0.00675958 0.937651 0.627044 0.425978 0.834416 0.719205 0.366711 -0.912792 0.44722 0.579033 -0.759853 0.409835 0.370853 -0.919332 2.47124 0.0174335 -0.499995 -2.45306 0.0502066 -0.654504 -0.688196 -0.219422 -0.675322 -1.89655 0.0174335 -0.499995 -2.45306 0.131434 -0.404503 -2.0507 0.0502066 -0.654504 -0.688196 0.425323 -0.309011 -6.54684 0.574465 -0.417368 -3.98452 0.344096 -0.559012 -2.08337 0.850648 0 -0.525736 0.637985 0.154506 -0.688195 0.787128 0.262863 -0.486478 0.850648 0 -0.525736 0.637985 -0.154506 -2.48213 0.637985 0.154506 -0.688195 0.425323 -0.309011 -6.54684 0.212661 -0.154506 -2.73473 0.425323 0 -1.42301 -0.488203 -0.129091 -2.85062 -0.361663 -0.270983 -3.67942 -0.69962 -0.157804 -1.16762 -0.488203 -0.129091 -2.85062 -0.160354 -0.263241 -4.67496 -0.361663 -0.270983 -3.67942 0.0174335 -0.499995 -2.45306 -0.219422 -0.675322 -1.89655 -0.245433 -0.35532 -5.09616 -0.162455 0.499995 -4.10033 -0.425323 0.499996 -4.98447 -0.219422 0.675322 -1.86494 -0.162455 0.499995 -4.10033 -0.339845 0.257575 -2.31282 -0.425323 0.499996 -4.98447 -0.488203 -0.129091 -2.85062 -0.69962 -0.157804 -1.16762 -0.602936 0.309173 -1.63119 0.425323 0.309011 -0.850654 0.344096 0.559012 -0.688196 0.574465 0.417368 -0.648937 0.425323 0.309011 -0.850654 0.131434 0.404503 -5.66715 0.344096 0.559012 -0.688196 -0.162455 0.499995 -4.10033 -0.219422 0.675322 -1.86494 0.0502066 0.654504 -0.688196 0.830715 -0.309013 0 1.01521 0.379569 0 0.974469 0 0.447216 0.830715 -0.309013 0 0.850648 0 -0.525736 1.01521 0.379569 0 0.787128 0.262863 -0.486478 0.723607 0.525725 -0.447219 1.01521 0.379569 0 0 -1 0 0.440699 -0.809017 0 0.366711 -0.912792 0.44722 0 -1 0 0.262869 -0.809012 -0.525738 0.440699 -0.809017 0 0.493238 -0.667368 -0.523823 0.723607 -0.525725 -0.65454 0.440699 -0.809017 0 -0.951058 -0.309013 -0.0219775 -0.587786 -0.809017 -0.0943112 -0.742453 -0.525725 0.214415 -0.951058 -0.309013 -0.0219775 -0.674931 -0.423351 -1.68627 -0.587786 -0.809017 -0.0943112 -0.482289 -0.559166 -1.36997 -0.276388 -0.850649 -0.455557 -0.587786 -0.809017 -0.0943112 -0.587786 0.809017 -0.0919216 -0.951058 0.309132 -0.270314 -0.730764 0.526175 0.294101 -0.587786 0.809017 -0.0919216 -0.688189 0.513171 -2.08754 -0.951058 0.309132 -0.270314 -0.791308 0.278663 -0.536373 -0.894426 0.00011627 -0.761097 -0.951058 0.309132 -0.270314 0.670378 0.870182 0 0 1 0 0.237228 0.967318 0.579393 0.670378 0.870182 0 0.262869 0.809012 -0.525738 0 1 0 -0.00675958 0.82983 -0.486479 -0.276388 0.850649 -0.455345 0 1 0 0.366711 -0.912792 0.44722 0.440699 -0.809017 0 0.579033 -0.759853 0.409835 0.440699 -0.809017 0 0.830715 -0.309013 0 0.782962 -0.613274 0.636328 0.782962 -0.613274 0.636328 0.830715 -0.309013 0 0.933873 -0.249998 0.745312 -0.742453 -0.525725 0.214415 -0.587786 -0.809017 -0.0943112 -0.622851 -0.667368 0.612906 -0.587786 -0.809017 -0.0943112 0 -1 0 -0.312874 -0.808029 0.551521 -0.312874 -0.808029 0.551521 0 -1 0 0.00384468 -0.911671 0.908634 -0.730764 0.526175 0.294101 -0.951058 0.309132 -0.270314 -0.896254 0.263088 0.275519 -0.951058 0.309132 -0.270314 -0.951058 -0.309013 -0.0219775 -0.912307 0 0.146385 -0.912307 0 0.146385 -0.951058 -0.309013 -0.0219775 -0.887273 -0.228278 0.501849 0.237228 0.967318 0.579393 0 1 0 0.00675958 0.937651 0.627044 0 1 0 -0.587786 0.809017 -0.0919216 -0.262869 0.851341 0.51741 -0.262869 0.851341 0.51741 -0.587786 0.809017 -0.0919216 -0.590369 0.7161 0.315398 0.974469 0 0.447216 1.01521 0.379569 0 0.962693 0.264124 0.741451 1.01521 0.379569 0 0.670378 0.870182 0 0.80411 0.613829 0.710945 0.80411 0.613829 0.710945 0.670378 0.870182 0 0.594077 0.849177 0.486478 0.162455 -0.499995 0.619428 0.344093 -0.249998 0.839918 0.0812278 -0.342974 0.679924 0.162455 -0.499995 0.619428 0.484114 -0.499996 0.854653 0.344093 -0.249998 0.839918 0.219422 -0.675322 0.638202 0.157374 -0.892831 1.15841 0.312665 -0.718059 2.37212 -0.391244 -0.23097 0.611796 -0.131434 -0.404503 0.421202 -0.212661 -0.154506 0.506611 -0.391244 -0.23097 0.611796 -0.172462 -0.559012 0.466188 -0.131434 -0.404503 0.421202 -0.312874 -0.808029 0.551521 0.00384468 -0.911671 0.908634 -0.102087 -0.783617 0.542197 -0.425323 0.323109 0.473091 -0.425323 0.00704879 0.212478 -0.212661 0.161555 0.819856 -0.425323 0.323109 0.473091 -0.637985 0.161555 0.464652 -0.425323 0.00704879 0.212478 -0.912307 0 0.146385 -0.887273 -0.228278 0.501849 -0.637985 -0.0612883 0.701508 0.162455 0.499995 0.624683 -0.131434 0.497019 0.292616 0.210605 0.314853 0.64813 0.162455 0.499995 0.624683 -0.0502066 0.654504 0.679891 -0.131434 0.497019 0.292616 -0.262869 0.851341 0.51741 -0.590369 0.7161 0.315398 -0.344096 0.56606 0.572226 0.564455 0.0915449 0.528859 0.58145 0.423868 0.709542 0.394853 0 0.631722 0.564455 0.0915449 0.528859 0.898698 0.30257 0.555235 0.58145 0.423868 0.709542 0.80411 0.613829 0.710945 0.594077 0.849177 0.486478 0.737615 0.574915 0.688195 0.0986613 -0.249998 -0.944331 0.131434 -0.404503 -2.0507 0.0174335 -0.499995 -2.45306 0.0986613 -0.249998 -0.944331 0.212661 -0.154506 -2.73473 0.131434 -0.404503 -2.0507 0.212661 -0.154506 -2.73473 0.425323 -0.309011 -6.54684 0.131434 -0.404503 -2.0507 0.787128 -0.262863 -0.927107 0.637985 -0.154506 -2.48213 0.850648 0 -0.525736 0.787128 -0.262863 -0.927107 0.574465 -0.417368 -3.98452 0.637985 -0.154506 -2.48213 0.574465 -0.417368 -3.98452 0.425323 -0.309011 -6.54684 0.637985 -0.154506 -2.48213 -0.265919 0.0187283 -7.80131 -0.160354 -0.263241 -4.67496 -0.488203 -0.129091 -2.85062 -0.265919 0.0187283 -7.80131 0.0986613 -0.249998 -0.944331 -0.160354 -0.263241 -4.67496 0.0986613 -0.249998 -0.944331 0.0174335 -0.499995 -2.45306 -0.160354 -0.263241 -4.67496 -0.0812278 0.249998 -5.6721 -0.339845 0.257575 -2.31282 -0.162455 0.499995 -4.10033 -0.0812278 0.249998 -5.6721 -0.265919 0.0187283 -7.80131 -0.339845 0.257575 -2.31282 -0.265919 0.0187283 -7.80131 -0.488203 -0.129091 -2.85062 -0.339845 0.257575 -2.31282 0.212661 0.154506 -0.925327 0.131434 0.404503 -5.66715 0.425323 0.309011 -0.850654 0.212661 0.154506 -0.925327 -0.0812278 0.249998 -5.6721 0.131434 0.404503 -5.66715 -0.0812278 0.249998 -5.6721 -0.162455 0.499995 -4.10033 0.131434 0.404503 -5.66715 0.723607 -0.525725 -0.65454 0.787128 -0.262863 -0.927107 0.830715 -0.309013 0 -0.276388 -0.850649 -0.455557 -0.00675958 -0.82983 -0.486479 0 -1 0 -0.894426 0.00011627 -0.761097 -0.791308 -0.249998 -0.561588 -0.951058 -0.309013 -0.0219775 -0.276388 0.850649 -0.455345 -0.482289 0.675323 -2.77306 -0.587786 0.809017 -0.0919216 0.723607 0.525725 -0.447219 0.493238 0.667368 -1.26456 0.670378 0.870182 0 -0.219422 -0.675322 -1.89655 -0.00675958 -0.82983 -0.486479 -0.276388 -0.850649 -0.455557 -0.219422 -0.675322 -1.89655 0.0502066 -0.654504 -0.688196 -0.00675958 -0.82983 -0.486479 0.0502066 -0.654504 -0.688196 0.262869 -0.809012 -0.525738 -0.00675958 -0.82983 -0.486479 0.0502066 -0.654504 -0.688196 0.344096 -0.559012 -2.08337 0.262869 -0.809012 -0.525738 0.0502066 -0.654504 -0.688196 0.131434 -0.404503 -2.0507 0.344096 -0.559012 -2.08337 0.131434 -0.404503 -2.0507 0.425323 -0.309011 -6.54684 0.344096 -0.559012 -2.08337 0.344096 -0.559012 -2.08337 0.493238 -0.667368 -0.523823 0.262869 -0.809012 -0.525738 0.344096 -0.559012 -2.08337 0.574465 -0.417368 -3.98452 0.493238 -0.667368 -0.523823 0.574465 -0.417368 -3.98452 0.723607 -0.525725 -0.65454 0.493238 -0.667368 -0.523823 0.787128 0.262863 -0.486478 0.574465 0.417368 -0.648937 0.723607 0.525725 -0.447219 0.787128 0.262863 -0.486478 0.637985 0.154506 -0.688195 0.574465 0.417368 -0.648937 0.637985 0.154506 -0.688195 0.425323 0.309011 -0.850654 0.574465 0.417368 -0.648937 0.637985 0.154506 -0.688195 0.425323 0 -1.42301 0.425323 0.309011 -0.850654 0.637985 0.154506 -0.688195 0.637985 -0.154506 -2.48213 0.425323 0 -1.42301 0.637985 -0.154506 -2.48213 0.425323 -0.309011 -6.54684 0.425323 0 -1.42301 0.425323 0 -1.42301 0.212661 0.154506 -0.925327 0.425323 0.309011 -0.850654 0.425323 0 -1.42301 0.212661 -0.154506 -2.73473 0.212661 0.154506 -0.925327 0.212661 -0.154506 -2.73473 0 0 -1.70378 0.212661 0.154506 -0.925327 -0.69962 -0.157804 -1.16762 -0.791308 -0.249998 -0.561588 -0.894426 0.00011627 -0.761097 -0.69962 -0.157804 -1.16762 -0.361663 -0.270983 -3.67942 -0.791308 -0.249998 -0.561588 -0.361663 -0.270983 -3.67942 -0.674931 -0.423351 -1.68627 -0.791308 -0.249998 -0.561588 -0.361663 -0.270983 -3.67942 -0.245433 -0.35532 -5.09616 -0.674931 -0.423351 -1.68627 -0.361663 -0.270983 -3.67942 -0.160354 -0.263241 -4.67496 -0.245433 -0.35532 -5.09616 -0.160354 -0.263241 -4.67496 0.0174335 -0.499995 -2.45306 -0.245433 -0.35532 -5.09616 -0.245433 -0.35532 -5.09616 -0.482289 -0.559166 -1.36997 -0.674931 -0.423351 -1.68627 -0.245433 -0.35532 -5.09616 -0.219422 -0.675322 -1.89655 -0.482289 -0.559166 -1.36997 -0.219422 -0.675322 -1.89655 -0.276388 -0.850649 -0.455557 -0.482289 -0.559166 -1.36997 -0.219422 0.675322 -1.86494 -0.482289 0.675323 -2.77306 -0.276388 0.850649 -0.455345 -0.219422 0.675322 -1.86494 -0.425323 0.499996 -4.98447 -0.482289 0.675323 -2.77306 -0.425323 0.499996 -4.98447 -0.688189 0.513171 -2.08754 -0.482289 0.675323 -2.77306 -0.425323 0.499996 -4.98447 -0.602936 0.309173 -1.63119 -0.688189 0.513171 -2.08754 -0.425323 0.499996 -4.98447 -0.339845 0.257575 -2.31282 -0.602936 0.309173 -1.63119 -0.339845 0.257575 -2.31282 -0.488203 -0.129091 -2.85062 -0.602936 0.309173 -1.63119 -0.602936 0.309173 -1.63119 -0.791308 0.278663 -0.536373 -0.688189 0.513171 -2.08754 -0.602936 0.309173 -1.63119 -0.69962 -0.157804 -1.16762 -0.791308 0.278663 -0.536373 -0.69962 -0.157804 -1.16762 -0.894426 0.00011627 -0.761097 -0.791308 0.278663 -0.536373 0.574465 0.417368 -0.648937 0.493238 0.667368 -1.26456 0.723607 0.525725 -0.447219 0.574465 0.417368 -0.648937 0.344096 0.559012 -0.688196 0.493238 0.667368 -1.26456 0.344096 0.559012 -0.688196 0.262869 0.809012 -0.525738 0.493238 0.667368 -1.26456 0.344096 0.559012 -0.688196 0.0502066 0.654504 -0.688196 0.262869 0.809012 -0.525738 0.344096 0.559012 -0.688196 0.131434 0.404503 -5.66715 0.0502066 0.654504 -0.688196 0.131434 0.404503 -5.66715 -0.162455 0.499995 -4.10033 0.0502066 0.654504 -0.688196 0.0502066 0.654504 -0.688196 -0.00675958 0.82983 -0.486479 0.262869 0.809012 -0.525738 0.0502066 0.654504 -0.688196 -0.219422 0.675322 -1.86494 -0.00675958 0.82983 -0.486479 -0.219422 0.675322 -1.86494 -0.276388 0.850649 -0.455345 -0.00675958 0.82983 -0.486479 0.850648 0 -0.525736 0.787128 0.262863 -0.486478 1.01521 0.379569 0 0.262869 -0.809012 -0.525738 0.493238 -0.667368 -0.523823 0.440699 -0.809017 0 -0.674931 -0.423351 -1.68627 -0.482289 -0.559166 -1.36997 -0.587786 -0.809017 -0.0943112 -0.688189 0.513171 -2.08754 -0.791308 0.278663 -0.536373 -0.951058 0.309132 -0.270314 0.262869 0.809012 -0.525738 -0.00675958 0.82983 -0.486479 0 1 0 0.219422 -0.675322 0.638202 0.484114 -0.499996 0.854653 0.162455 -0.499995 0.619428 0.741083 -0.0743579 0.925339 0.60696 -0.249998 0.611551 0.71422 -0.269753 1.36675 0.60696 -0.249998 0.611551 0.484114 -0.499996 0.854653 0.611102 -0.256539 1.38639 -0.574465 -0.417368 0.644513 -0.172462 -0.559012 0.466188 -0.391244 -0.23097 0.611796 -0.574465 -0.417368 0.644513 -0.622851 -0.667368 0.612906 -0.172462 -0.559012 0.466188 -0.622851 -0.667368 0.612906 -0.312874 -0.808029 0.551521 -0.172462 -0.559012 0.466188 -0.574465 0.424642 0.628844 -0.637985 0.161555 0.464652 -0.425323 0.323109 0.473091 -0.574465 0.424642 0.628844 -0.896254 0.263088 0.275519 -0.637985 0.161555 0.464652 -0.896254 0.263088 0.275519 -0.912307 0 0.146385 -0.637985 0.161555 0.464652 0.425978 0.834416 0.719205 -0.0502066 0.654504 0.679891 0.162455 0.499995 0.624683 0.425978 0.834416 0.719205 0.00675958 0.937651 0.627044 -0.0502066 0.654504 0.679891 0.00675958 0.937651 0.627044 -0.262869 0.851341 0.51741 -0.0502066 0.654504 0.679891 0.741083 -0.0743579 0.925339 0.898698 0.30257 0.555235 0.564455 0.0915449 0.528859 0.741083 -0.0743579 0.925339 0.962693 0.264124 0.741451 0.898698 0.30257 0.555235 0.962693 0.264124 0.741451 0.80411 0.613829 0.710945 0.898698 0.30257 0.555235 0.440699 -0.809017 0 0.782962 -0.613274 0.636328 0.579033 -0.759853 0.409835 0.830715 -0.309013 0 0.974469 0 0.447216 0.933873 -0.249998 0.745312 -0.587786 -0.809017 -0.0943112 -0.312874 -0.808029 0.551521 -0.622851 -0.667368 0.612906 0 -1 0 0.366711 -0.912792 0.44722 0.157374 -0.892831 1.15841 -0.951058 0.309132 -0.270314 -0.912307 0 0.146385 -0.896254 0.263088 0.275519 -0.951058 -0.309013 -0.0219775 -0.742453 -0.525725 0.214415 -0.887273 -0.228278 0.501849 0 1 0 -0.262869 0.851341 0.51741 0.00675958 0.937651 0.627044 -0.587786 0.809017 -0.0919216 -0.730764 0.526175 0.294101 -0.590369 0.7161 0.315398 1.01521 0.379569 0 0.80411 0.613829 0.710945 0.962693 0.264124 0.741451 0.670378 0.870182 0 0.237228 0.967318 0.579393 0.594077 0.849177 0.486478 0.0812278 -0.342974 0.679924 0.394853 0 0.631722 0 0 0.688493 0.0812278 -0.342974 0.679924 0.344093 -0.249998 0.839918 0.394853 0 0.631722 0.344093 -0.249998 0.839918 0.564455 0.0915449 0.528859 0.394853 0 0.631722 0.344093 -0.249998 0.839918 0.60696 -0.249998 0.611551 0.564455 0.0915449 0.528859 0.344093 -0.249998 0.839918 0.484114 -0.499996 0.854653 0.60696 -0.249998 0.611551 0.926551 0.115895 2.18032 0.962693 0.264124 0.741451 0.71422 -0.269753 1.36675 0.60696 -0.249998 0.611551 0.741083 -0.0743579 0.925339 0.564455 0.0915449 0.528859 0.542863 -0.420265 1.50624 0.484114 -0.499996 0.854653 0.425326 -0.538295 1.80508 0.579033 -0.759853 0.409835 0.583175 -0.766393 2.43385 0.370853 -0.919332 2.47124 -0.212661 -0.154506 0.506611 0.0812278 -0.342974 0.679924 0 0 0.688493 -0.212661 -0.154506 0.506611 -0.131434 -0.404503 0.421202 0.0812278 -0.342974 0.679924 -0.131434 -0.404503 0.421202 0.162455 -0.499995 0.619428 0.0812278 -0.342974 0.679924 -0.131434 -0.404503 0.421202 -0.0502066 -0.654504 0.673189 0.162455 -0.499995 0.619428 -0.131434 -0.404503 0.421202 -0.172462 -0.559012 0.466188 -0.0502066 -0.654504 0.673189 -0.0502066 -0.654504 0.673189 -0.172462 -0.559012 0.466188 -0.102087 -0.783617 0.542197 -0.0502066 -0.654504 0.673189 0.219422 -0.675322 0.638202 0.162455 -0.499995 0.619428 0.0535838 -0.782557 1.03963 0.157374 -0.892831 1.15841 0.219422 -0.675322 0.638202 0.974469 0 0.447216 0.962693 0.264124 0.741451 0.926551 0.115895 2.18032 -0.212661 0.161555 0.819856 -0.212661 -0.154506 0.506611 0 0 0.688493 -0.212661 0.161555 0.819856 -0.425323 0.00704879 0.212478 -0.212661 -0.154506 0.506611 -0.425323 0.00704879 0.212478 -0.391244 -0.23097 0.611796 -0.212661 -0.154506 0.506611 -0.425323 0.00704879 0.212478 -0.637985 -0.0612883 0.701508 -0.391244 -0.23097 0.611796 -0.425323 0.00704879 0.212478 -0.637985 0.161555 0.464652 -0.637985 -0.0612883 0.701508 -0.637985 0.161555 0.464652 -0.912307 0 0.146385 -0.637985 -0.0612883 0.701508 -0.637985 -0.0612883 0.701508 -0.574465 -0.417368 0.644513 -0.391244 -0.23097 0.611796 -0.637985 -0.0612883 0.701508 -0.887273 -0.228278 0.501849 -0.574465 -0.417368 0.644513 -0.887273 -0.228278 0.501849 -0.742453 -0.525725 0.214415 -0.574465 -0.417368 0.644513 0.210605 0.314853 0.64813 -0.212661 0.161555 0.819856 0 0 0.688493 0.210605 0.314853 0.64813 -0.131434 0.497019 0.292616 -0.212661 0.161555 0.819856 -0.131434 0.497019 0.292616 -0.425323 0.323109 0.473091 -0.212661 0.161555 0.819856 -0.131434 0.497019 0.292616 -0.344096 0.56606 0.572226 -0.425323 0.323109 0.473091 -0.131434 0.497019 0.292616 -0.0502066 0.654504 0.679891 -0.344096 0.56606 0.572226 -0.0502066 0.654504 0.679891 -0.262869 0.851341 0.51741 -0.344096 0.56606 0.572226 -0.344096 0.56606 0.572226 -0.574465 0.424642 0.628844 -0.425323 0.323109 0.473091 -0.344096 0.56606 0.572226 -0.590369 0.7161 0.315398 -0.574465 0.424642 0.628844 -0.590369 0.7161 0.315398 -0.730764 0.526175 0.294101 -0.574465 0.424642 0.628844 0.394853 0 0.631722 0.210605 0.314853 0.64813 0 0 0.688493 0.394853 0 0.631722 0.58145 0.423868 0.709542 0.210605 0.314853 0.64813 0.58145 0.423868 0.709542 0.162455 0.499995 0.624683 0.210605 0.314853 0.64813 0.58145 0.423868 0.709542 0.737615 0.574915 0.688195 0.162455 0.499995 0.624683 0.58145 0.423868 0.709542 0.898698 0.30257 0.555235 0.737615 0.574915 0.688195 0.898698 0.30257 0.555235 0.80411 0.613829 0.710945 0.737615 0.574915 0.688195 0.737615 0.574915 0.688195 0.425978 0.834416 0.719205 0.162455 0.499995 0.624683 0.737615 0.574915 0.688195 0.594077 0.849177 0.486478 0.425978 0.834416 0.719205 0.594077 0.849177 0.486478 0.237228 0.967318 0.579393 0.425978 0.834416 0.719205 0.974469 0 0.447216 0.931811 -0.0065403 2.47123 0.920069 -0.256539 1.76579 0.366711 -0.912792 0.44722 0.370853 -0.919332 2.47124 0.111784 -0.836371 2.50622 0.579033 -0.759853 0.409835 0.782962 -0.613274 0.636328 0.787105 -0.619814 2.66034 0.782962 -0.613274 0.636328 0.933873 -0.249998 0.745312 0.920069 -0.256539 1.76579 0.484114 -0.499996 0.854653 0.219422 -0.675322 0.638202 0.312665 -0.718059 2.37212 0.962693 0.264124 0.741451 0.741083 -0.0743579 0.925339 0.71422 -0.269753 1.36675 0.484114 -0.499996 0.854653 0.542863 -0.420265 1.50624 0.611102 -0.256539 1.38639 0.60696 -0.249998 0.611551 0.611102 -0.256539 1.38639 0.71422 -0.269753 1.36675 0.157374 -0.892831 1.15841 0.111784 -0.836371 2.50622 0.312665 -0.718059 2.37212 0.931811 -0.0065403 2.47123 0.911174 -0.0919378 2.97277 0.8931 -0.169121 2.97064 0.931811 -0.0065403 2.47123 0.926551 0.115895 2.18032 0.71422 -0.269753 1.36675 0.931811 -0.0065403 2.47123 0.71422 -0.269753 1.36675 0.76601 -0.177335 2.78409 0.583175 -0.766393 2.43385 0.787105 -0.619814 2.66034 0.725486 -0.556015 3.59109 0.787105 -0.619814 2.66034 0.920069 -0.256539 1.76579 0.807588 -0.331702 4.45512 0.491584 -0.488171 3.00695 0.312665 -0.718059 2.37212 0.42495 -0.551865 4.46245 0.670503 -0.486069 6.37256 0.616809 -0.331702 2.43042 0.586901 -0.362792 2.81122 0.71422 -0.269753 1.36675 0.611102 -0.256539 1.38639 0.616809 -0.331702 2.43042 0.111784 -0.836371 2.50622 0.370853 -0.919332 2.47124 0.312665 -0.718059 2.37212 0.468463 -0.740959 3.47432 0.599565 -0.646523 3.45123 0.524693 -0.699507 5.64114 0.725486 -0.556015 3.59109 0.807588 -0.331702 4.45512 0.616809 -0.331702 2.43042 0.524693 -0.699507 5.64114 0.599565 -0.646523 3.45123 0.514409 -0.582488 4.90008 0.599565 -0.646523 3.45123 0.725486 -0.556015 3.59109 0.670503 -0.486069 6.37256 0.670503 -0.486069 6.37256 0.725486 -0.556015 3.59109 0.616809 -0.331702 2.43042 0.616809 -0.331702 2.43042 0.807588 -0.331702 4.45512 0.76601 -0.177335 2.78409 0.825662 -0.254519 3.96472 0.843736 -0.177335 3.47432 0.76601 -0.177335 2.78409 0.370853 -0.919332 2.47124 0.468463 -0.740959 3.47432 0.524693 -0.699507 5.64114 0.583175 -0.766393 2.43385 0.599565 -0.646523 3.45123 0.468463 -0.740959 3.47432 0.933873 -0.249998 0.745312 0.974469 0 0.447216 0.920069 -0.256539 1.76579 0.157374 -0.892831 1.15841 0.366711 -0.912792 0.44722 0.111784 -0.836371 2.50622 0.583175 -0.766393 2.43385 0.579033 -0.759853 0.409835 0.787105 -0.619814 2.66034 0.787105 -0.619814 2.66034 0.782962 -0.613274 0.636328 0.920069 -0.256539 1.76579 0.807588 -0.331702 4.45512 0.920069 -0.256539 1.76579 0.8931 -0.169121 2.97064 0.911174 -0.0919378 2.97277 0.931811 -0.0065403 2.47123 0.76601 -0.177335 2.78409 0.599565 -0.646523 3.45123 0.583175 -0.766393 2.43385 0.725486 -0.556015 3.59109 0.725486 -0.556015 3.59109 0.787105 -0.619814 2.66034 0.807588 -0.331702 4.45512 0.312665 -0.718059 2.37212 0.370853 -0.919332 2.47124 0.524693 -0.699507 5.64114 0.370853 -0.919332 2.47124 0.583175 -0.766393 2.43385 0.468463 -0.740959 3.47432 0.542863 -0.420265 1.50624 0.425326 -0.538295 1.80508 0.586901 -0.362792 2.81122 0.76601 -0.177335 2.78409 0.71422 -0.269753 1.36675 0.616809 -0.331702 2.43042 0.484114 -0.499996 0.854653 0.312665 -0.718059 2.37212 0.425326 -0.538295 1.80508 0.524693 -0.699507 5.64114 0.514409 -0.582488 4.90008 0.42495 -0.551865 4.46245 0.611102 -0.256539 1.38639 0.542863 -0.420265 1.50624 0.586901 -0.362792 2.81122 0.616809 -0.331702 2.43042 0.611102 -0.256539 1.38639 0.586901 -0.362792 2.81122 0.670503 -0.486069 6.37256 0.586901 -0.362792 2.81122 0.581044 -0.544067 4.87541 0.586901 -0.362792 2.81122 0.425326 -0.538295 1.80508 0.491584 -0.488171 3.00695 0.425326 -0.538295 1.80508 0.312665 -0.718059 2.37212 0.491584 -0.488171 3.00695 0 -1 0 0.157374 -0.892831 1.15841 0.00384468 -0.911671 0.908634 -0.102087 -0.783617 0.542197 0.0535838 -0.782557 1.03963 -0.0502066 -0.654504 0.673189 -0.102087 -0.783617 0.542197 0.00384468 -0.911671 0.908634 0.0535838 -0.782557 1.03963 0.00384468 -0.911671 0.908634 0.157374 -0.892831 1.15841 0.0535838 -0.782557 1.03963 -0.172462 -0.559012 0.466188 -0.312874 -0.808029 0.551521 -0.102087 -0.783617 0.542197 -0.0502066 -0.654504 0.673189 0.0535838 -0.782557 1.03963 0.219422 -0.675322 0.638202 0.312665 -0.718059 2.37212 0.524693 -0.699507 5.64114 0.42495 -0.551865 4.46245 0.599565 -0.646523 3.45123 0.670503 -0.486069 6.37256 0.514409 -0.582488 4.90008 0.42495 -0.551865 4.46245 0.581044 -0.544067 4.87541 0.491584 -0.488171 3.00695 0.42495 -0.551865 4.46245 0.514409 -0.582488 4.90008 0.581044 -0.544067 4.87541 0.514409 -0.582488 4.90008 0.670503 -0.486069 6.37256 0.581044 -0.544067 4.87541 0.586901 -0.362792 2.81122 0.491584 -0.488171 3.00695 0.581044 -0.544067 4.87541 0.8931 -0.169121 2.97064 0.825662 -0.254519 3.96472 0.807588 -0.331702 4.45512 0.8931 -0.169121 2.97064 0.911174 -0.0919378 2.97277 0.825662 -0.254519 3.96472 0.911174 -0.0919378 2.97277 0.843736 -0.177335 3.47432 0.825662 -0.254519 3.96472 0.807588 -0.331702 4.45512 0.825662 -0.254519 3.96472 0.76601 -0.177335 2.78409 0.920069 -0.256539 1.76579 0.931811 -0.0065403 2.47123 0.8931 -0.169121 2.97064 0.843736 -0.177335 3.47432 0.911174 -0.0919378 2.97277 0.76601 -0.177335 2.78409 </float_array>
     <technique_common>
      <accessor source="#ID7-array" count="852" stride="3">
       <param name="X" type="float"/>
       <param name="Y" type="float"/>
       <param name="Z" type="float"/>
      </accessor>
     </technique_common>
    </source>
    <source id="Icosphere-mesh-normals">
     <float_array id="ID8-array" count="2556">-0.815758 -0.572483 -0.0824753 -0.815758 -0.572483 -0.0824753 -0.815758 -0.572483 -0.0824753 0.957009 -0.285332 -0.0521468 0.957009 -0.285332 -0.0521468 0.957009 -0.285332 -0.0521468 0.965896 0.255611 -0.0413385 0.965896 0.255611 -0.0413385 0.965896 0.255611 -0.0413385 0.932046 -0.359927 -0.0417529 0.932046 -0.359927 -0.0417529 0.932046 -0.359927 -0.0417529 0.717823 -0.693772 -0.0583997 0.717823 -0.693772 -0.0583997 0.717823 -0.693772 -0.0583997 0.98632 -0.155703 -0.0541214 0.98632 -0.155703 -0.0541214 0.98632 -0.155703 -0.0541214 0.0247465 -0.943521 -0.330386 0.0247465 -0.943521 -0.330386 0.0247465 -0.943521 -0.330386 -0.795353 0.581264 -0.171892 -0.795353 0.581264 -0.171892 -0.795353 0.581264 -0.171892 -0.737667 0.672261 -0.0625476 -0.737667 0.672261 -0.0625476 -0.737667 0.672261 -0.0625476 0.0681944 0.983545 -0.167296 0.0681944 0.983545 -0.167296 0.0681944 0.983545 -0.167296 0.786308 -0.613339 0.074402 0.786308 -0.613339 0.074402 0.786308 -0.613339 0.074402 -0.286091 -0.948311 -0.137324 -0.286091 -0.948311 -0.137324 -0.286091 -0.948311 -0.137324 -0.995111 -0.0368176 -0.0916443 -0.995111 -0.0368176 -0.0916443 -0.995111 -0.0368176 -0.0916443 -0.286659 0.948186 -0.137002 -0.286659 0.948186 -0.137002 -0.286659 0.948186 -0.137002 0.773269 0.543507 -0.326581 0.773269 0.543507 -0.326581 0.773269 0.543507 -0.326581 0.995408 0.0933284 0.0212806 0.995408 0.0933284 0.0212806 0.995408 0.0933284 0.0212806 -0.933793 0.139046 0.329691 -0.933793 0.139046 0.329691 -0.933793 0.139046 0.329691 -0.754816 0.440472 0.486042 -0.754816 0.440472 0.486042 -0.754816 0.440472 0.486042 0.0397884 0.750493 0.65968 0.0397884 0.750493 0.65968 0.0397884 0.750493 0.65968 0.584028 -0.811724 -0.00381821 0.584028 -0.811724 -0.00381821 0.584028 -0.811724 -0.00381821 0.454177 -0.886745 -0.0860658 0.454177 -0.886745 -0.0860658 0.454177 -0.886745 -0.0860658 0.773307 -0.630207 -0.0695329 0.773307 -0.630207 -0.0695329 0.773307 -0.630207 -0.0695329 0.176527 -0.98293 -0.0518417 0.176527 -0.98293 -0.0518417 0.176527 -0.98293 -0.0518417 0.700224 0.268032 -0.661699 0.700224 0.268032 -0.661699 0.700224 0.268032 -0.661699 0.645725 0.752488 -0.129619 0.645725 0.752488 -0.129619 0.645725 0.752488 -0.129619 -0.333623 0.940997 -0.0567502 -0.333623 0.940997 -0.0567502 -0.333623 0.940997 -0.0567502 -0.981969 -0.141144 -0.125762 -0.981969 -0.141144 -0.125762 -0.981969 -0.141144 -0.125762 -0.946344 0.261895 -0.189324 -0.946344 0.261895 -0.189324 -0.946344 0.261895 -0.189324 0.442264 -0.89207 -0.0928139 0.442264 -0.89207 -0.0928139 0.442264 -0.89207 -0.0928139 0.235532 0.969341 -0.0700255 0.235532 0.969341 -0.0700255 0.235532 0.969341 -0.0700255 0.322106 -0.941847 -0.095767 0.322106 -0.941847 -0.095767 0.322106 -0.941847 -0.095767 -0.988966 0.0828311 -0.12282 -0.988966 0.0828311 -0.12282 -0.988966 0.0828311 -0.12282 0.4713 0.583122 -0.661699 0.4713 0.583122 -0.661699 0.4713 0.583122 -0.661699 0.939704 0.338219 -0.0506325 0.939704 0.338219 -0.0506325 0.939704 0.338219 -0.0506325 0.352467 0.933617 -0.0642436 0.352467 0.933617 -0.0642436 0.352467 0.933617 -0.0642436 0.957663 -0.256597 -0.130533 0.957663 -0.256597 -0.130533 0.957663 -0.256597 -0.130533 0.959549 -0.257103 -0.114736 0.959549 -0.257103 -0.114736 0.959549 -0.257103 -0.114736 0.844236 0.272902 -0.461291 0.844236 0.272902 -0.461291 0.844236 0.272902 -0.461291 0.393396 -0.907773 -0.145561 0.393396 -0.907773 -0.145561 0.393396 -0.907773 -0.145561 0.394082 -0.909356 -0.133307 0.394082 -0.909356 -0.133307 0.394082 -0.909356 -0.133307 0.431042 -0.881009 -0.195003 0.431042 -0.881009 -0.195003 0.431042 -0.881009 -0.195003 -0.789266 -0.595248 0.150797 -0.789266 -0.595248 0.150797 -0.789266 -0.595248 0.150797 -0.811844 -0.576075 -0.0951185 -0.811844 -0.576075 -0.0951185 -0.811844 -0.576075 -0.0951185 -0.362653 -0.908435 -0.207916 -0.362653 -0.908435 -0.207916 -0.362653 -0.908435 -0.207916 -0.821973 0.559649 0.105609 -0.821973 0.559649 0.105609 -0.821973 0.559649 0.105609 -0.799693 0.598449 -0.0484844 -0.799693 0.598449 -0.0484844 -0.799693 0.598449 -0.0484844 -0.64708 0.609299 -0.458304 -0.64708 0.609299 -0.458304 -0.64708 0.609299 -0.458304 0.190069 0.981514 -0.0224572 0.190069 0.981514 -0.0224572 0.190069 0.981514 -0.0224572 0.183928 0.949801 -0.253077 0.183928 0.949801 -0.253077 0.183928 0.949801 -0.253077 0.0346753 0.9432 -0.330412 0.0346753 0.9432 -0.330412 0.0346753 0.9432 -0.330412 0.570795 -0.815599 -0.0948231 0.570795 -0.815599 -0.0948231 0.570795 -0.815599 -0.0948231 0.767598 -0.598745 -0.228687 0.767598 -0.598745 -0.228687 0.767598 -0.598745 -0.228687 0.929132 -0.355849 -0.100424 0.929132 -0.355849 -0.100424 0.929132 -0.355849 -0.100424 -0.844597 -0.531494 0.0645763 -0.844597 -0.531494 0.0645763 -0.844597 -0.531494 0.0645763 -0.326252 -0.934812 0.140306 -0.326252 -0.934812 0.140306 -0.326252 -0.934812 0.140306 -0.400283 -0.911928 0.0903425 -0.400283 -0.911928 0.0903425 -0.400283 -0.911928 0.0903425 -0.843495 0.521494 0.128682 -0.843495 0.521494 0.128682 -0.843495 0.521494 0.128682 -0.989962 0.0526884 0.131149 -0.989962 0.0526884 0.131149 -0.989962 0.0526884 0.131149 -0.991771 0.0639421 0.110911 -0.991771 0.0639421 0.110911 -0.991771 0.0639421 0.110911 -0.106768 0.989291 0.0995193 -0.106768 0.989291 0.0995193 -0.106768 0.989291 0.0995193 -0.322287 0.94063 0.106518 -0.322287 0.94063 0.106518 -0.322287 0.94063 0.106518 -0.473848 0.859198 0.192992 -0.473848 0.859198 0.192992 -0.473848 0.859198 0.192992 0.997386 -0.0291763 0.0661071 0.997386 -0.0291763 0.0661071 0.997386 -0.0291763 0.0661071 0.816962 0.574216 0.0533767 0.816962 0.574216 0.0533767 0.816962 0.574216 0.0533767 0.670761 0.728971 0.136679 0.670761 0.728971 0.136679 0.670761 0.728971 0.136679 -0.324989 -0.481678 0.81386 -0.324989 -0.481678 0.81386 -0.324989 -0.481678 0.81386 -0.56798 -0.272339 0.776679 -0.56798 -0.272339 0.776679 -0.56798 -0.272339 0.776679 -0.913784 0.401887 0.0590452 -0.913784 0.401887 0.0590452 -0.913784 0.401887 0.0590452 0.539015 -0.110153 0.835062 0.539015 -0.110153 0.835062 0.539015 -0.110153 0.835062 0.617775 0.0641385 0.783735 0.617775 0.0641385 0.783735 0.617775 0.0641385 0.783735 -0.092285 0.931381 0.352155 -0.092285 0.931381 0.352155 -0.092285 0.931381 0.352155 -0.867182 -0.316815 0.384219 -0.867182 -0.316815 0.384219 -0.867182 -0.316815 0.384219 0.41239 -0.579569 0.702876 0.41239 -0.579569 0.702876 0.41239 -0.579569 0.702876 -0.711786 0.567159 0.414356 -0.711786 0.567159 0.414356 -0.711786 0.567159 0.414356 -0.743813 -0.10995 0.659282 -0.743813 -0.10995 0.659282 -0.743813 -0.10995 0.659282 -0.461569 -0.783767 0.415527 -0.461569 -0.783767 0.415527 -0.461569 -0.783767 0.415527 -0.588673 0.310985 0.746159 -0.588673 0.310985 0.746159 -0.588673 0.310985 0.746159 0.623147 -0.397938 0.6733 0.623147 -0.397938 0.6733 0.623147 -0.397938 0.6733 0.232068 -0.473754 0.84953 0.232068 -0.473754 0.84953 0.232068 -0.473754 0.84953 -0.47794 0.344238 0.80813 -0.47794 0.344238 0.80813 -0.47794 0.344238 0.80813 -0.29498 0.945085 -0.14072 -0.29498 0.945085 -0.14072 -0.29498 0.945085 -0.14072 -0.983385 0.173512 -0.0533606 -0.983385 0.173512 -0.0533606 -0.983385 0.173512 -0.0533606 -0.986335 0.152958 -0.0612227 -0.986335 0.152958 -0.0612227 -0.986335 0.152958 -0.0612227 0.991223 -0.0852903 -0.101011 0.991223 -0.0852903 -0.101011 0.991223 -0.0852903 -0.101011 0.973788 0.213473 -0.0785209 0.973788 0.213473 -0.0785209 0.973788 0.213473 -0.0785209 0.995821 0.0730034 -0.0548755 0.995821 0.0730034 -0.0548755 0.995821 0.0730034 -0.0548755 -0.607783 -0.792467 -0.0509508 -0.607783 -0.792467 -0.0509508 -0.607783 -0.792467 -0.0509508 0.932761 -0.354859 -0.0635012 0.932761 -0.354859 -0.0635012 0.932761 -0.354859 -0.0635012 0.993018 0.0954769 -0.0692834 0.993018 0.0954769 -0.0692834 0.993018 0.0954769 -0.0692834 -0.984359 0.158871 -0.07614 -0.984359 0.158871 -0.07614 -0.984359 0.158871 -0.07614 -0.544245 0.837783 -0.0437889 -0.544245 0.837783 -0.0437889 -0.544245 0.837783 -0.0437889 -0.91882 0.393573 -0.0295031 -0.91882 0.393573 -0.0295031 -0.91882 0.393573 -0.0295031 0.598949 -0.799072 -0.0523885 0.598949 -0.799072 -0.0523885 0.598949 -0.799072 -0.0523885 0.587768 -0.807316 -0.0526317 0.587768 -0.807316 -0.0526317 0.587768 -0.807316 -0.0526317 -0.578072 0.800695 -0.157229 -0.578072 0.800695 -0.157229 -0.578072 0.800695 -0.157229 0.954489 -0.292267 -0.0594229 0.954489 -0.292267 -0.0594229 0.954489 -0.292267 -0.0594229 0.0349334 -0.94319 -0.330412 0.0349334 -0.94319 -0.330412 0.0349334 -0.94319 -0.330412 -0.779833 -0.553999 -0.291455 -0.779833 -0.553999 -0.291455 -0.779833 -0.553999 -0.291455 -0.196863 0.978799 -0.0565535 -0.196863 0.978799 -0.0565535 -0.196863 0.978799 -0.0565535 0.903924 0.384053 -0.188216 0.903924 0.384053 -0.188216 0.903924 0.384053 -0.188216 0.0629757 -0.991004 -0.118087 0.0629757 -0.991004 -0.118087 0.0629757 -0.991004 -0.118087 0.854114 -0.487129 -0.182191 0.854114 -0.487129 -0.182191 0.854114 -0.487129 -0.182191 -0.0385304 -0.748779 -0.661699 -0.0385304 -0.748779 -0.661699 -0.0385304 -0.748779 -0.661699 -0.495534 -0.853199 -0.162779 -0.495534 -0.853199 -0.162779 -0.495534 -0.853199 -0.162779 -0.596146 -0.782635 -0.179143 -0.596146 -0.782635 -0.179143 -0.596146 -0.782635 -0.179143 -0.592467 -0.80366 -0.055795 -0.592467 -0.80366 -0.055795 -0.592467 -0.80366 -0.055795 0.521322 -0.846413 -0.108663 0.521322 -0.846413 -0.108663 0.521322 -0.846413 -0.108663 0.0231091 -0.997173 -0.0714931 0.0231091 -0.997173 -0.0714931 0.0231091 -0.997173 -0.0714931 0.502114 -0.863321 -0.0505808 0.502114 -0.863321 -0.0505808 0.502114 -0.863321 -0.0505808 0.700224 0.268032 -0.661699 0.700224 0.268032 -0.661699 0.700224 0.268032 -0.661699 0.700224 0.268032 -0.661699 0.700224 0.268032 -0.661699 0.700224 0.268032 -0.661699 0.700224 0.268032 -0.661699 0.700224 0.268032 -0.661699 0.700224 0.268032 -0.661699 0.707895 0.62152 -0.335557 0.707895 0.62152 -0.335557 0.707895 0.62152 -0.335557 -0.128367 0.977333 -0.168349 -0.128367 0.977333 -0.168349 -0.128367 0.977333 -0.168349 0.391454 0.918529 -0.0553951 0.391454 0.918529 -0.0553951 0.391454 0.918529 -0.0553951 -0.427205 0.795605 -0.429545 -0.427205 0.795605 -0.429545 -0.427205 0.795605 -0.429545 0.306676 0.93823 -0.160232 0.306676 0.93823 -0.160232 0.306676 0.93823 -0.160232 -0.0994447 0.980842 -0.167509 -0.0994447 0.980842 -0.167509 -0.0994447 0.980842 -0.167509 -0.837045 -0.50773 -0.203879 -0.837045 -0.50773 -0.203879 -0.837045 -0.50773 -0.203879 -0.987076 0.0838239 -0.136586 -0.987076 0.0838239 -0.136586 -0.987076 0.0838239 -0.136586 -0.965089 0.224746 -0.134504 -0.965089 0.224746 -0.134504 -0.965089 0.224746 -0.134504 -0.870878 0.4812 -0.100092 -0.870878 0.4812 -0.100092 -0.870878 0.4812 -0.100092 -0.486605 0.868802 -0.0916399 -0.486605 0.868802 -0.0916399 -0.486605 0.868802 -0.0916399 0.930437 -0.349032 -0.11164 0.930437 -0.349032 -0.11164 0.930437 -0.349032 -0.11164 -0.485144 -0.870905 -0.0784823 -0.485144 -0.870905 -0.0784823 -0.485144 -0.870905 -0.0784823 -0.532499 -0.842646 -0.0799465 -0.532499 -0.842646 -0.0799465 -0.532499 -0.842646 -0.0799465 -0.592874 -0.796256 -0.120319 -0.592874 -0.796256 -0.120319 -0.592874 -0.796256 -0.120319 0.350984 0.930854 -0.101596 0.350984 0.930854 -0.101596 0.350984 0.930854 -0.101596 0.243312 0.967388 -0.0704293 0.243312 0.967388 -0.0704293 0.243312 0.967388 -0.0704293 -0.752722 0.654468 -0.0712781 -0.752722 0.654468 -0.0712781 -0.752722 0.654468 -0.0712781 -0.849559 -0.522176 -0.0747139 -0.849559 -0.522176 -0.0747139 -0.849559 -0.522176 -0.0747139 -0.368982 -0.926622 -0.0722746 -0.368982 -0.926622 -0.0722746 -0.368982 -0.926622 -0.0722746 -0.663183 0.682317 -0.307624 -0.663183 0.682317 -0.307624 -0.663183 0.682317 -0.307624 -0.751345 -0.643283 -0.147201 -0.751345 -0.643283 -0.147201 -0.751345 -0.643283 -0.147201 -0.985025 0.0367097 -0.168457 -0.985025 0.0367097 -0.168457 -0.985025 0.0367097 -0.168457 -0.573689 0.632366 -0.520572 -0.573689 0.632366 -0.520572 -0.573689 0.632366 -0.520572 0.798218 -0.514019 -0.314056 0.798218 -0.514019 -0.314056 0.798218 -0.514019 -0.314056 -0.468084 -0.838561 -0.278771 -0.468084 -0.838561 -0.278771 -0.468084 -0.838561 -0.278771 -0.953137 -0.133144 -0.271666 -0.953137 -0.133144 -0.271666 -0.953137 -0.133144 -0.271666 0.187594 0.577345 -0.794658 0.187594 0.577345 -0.794658 0.187594 0.577345 -0.794658 0.30874 0.950189 -0.0426735 0.30874 0.950189 -0.0426735 0.30874 0.950189 -0.0426735 0.0624854 0.996841 -0.0490333 0.0624854 0.996841 -0.0490333 0.0624854 0.996841 -0.0490333 -0.0385304 0.748779 -0.661699 -0.0385304 0.748779 -0.661699 -0.0385304 0.748779 -0.661699 0.851066 0.490889 -0.186321 0.851066 0.490889 -0.186321 0.851066 0.490889 -0.186321 0.0625594 0.990716 -0.120698 0.0625594 0.990716 -0.120698 0.0625594 0.990716 -0.120698 0.844236 0.272901 -0.461291 0.844236 0.272901 -0.461291 0.844236 0.272901 -0.461291 0.516759 -0.838096 -0.174801 0.516759 -0.838096 -0.174801 0.516759 -0.838096 -0.174801 -0.312908 -0.92686 -0.207411 -0.312908 -0.92686 -0.207411 -0.312908 -0.92686 -0.207411 -0.439561 -0.883342 -0.162767 -0.439561 -0.883342 -0.162767 -0.439561 -0.883342 -0.162767 0.0247465 0.943521 -0.330386 0.0247465 0.943521 -0.330386 0.0247465 0.943521 -0.330386 -0.587043 -0.104778 0.802747 -0.587043 -0.104778 0.802747 -0.587043 -0.104778 0.802747 -0.890433 0.433746 0.137813 -0.890433 0.433746 0.137813 -0.890433 0.433746 0.137813 -0.894145 0.447695 0.00855899 -0.894145 0.447695 0.00855899 -0.894145 0.447695 0.00855899 0.345837 -0.178247 0.921208 0.345837 -0.178247 0.921208 0.345837 -0.178247 0.921208 0.344038 -0.183021 0.920946 0.344038 -0.183021 0.920946 0.344038 -0.183021 0.920946 0.266821 0.174356 0.947843 0.266821 0.174356 0.947843 0.266821 0.174356 0.947843 0.391206 -0.553379 0.735343 0.391206 -0.553379 0.735343 0.391206 -0.553379 0.735343 -0.637116 -0.291484 0.713527 -0.637116 -0.291484 0.713527 -0.637116 -0.291484 0.713527 -0.637933 -0.307602 0.70599 -0.637933 -0.307602 0.70599 -0.637933 -0.307602 0.70599 0.0329357 -0.295788 0.954686 0.0329357 -0.295788 0.954686 0.0329357 -0.295788 0.954686 -0.159725 0.212078 0.964112 -0.159725 0.212078 0.964112 -0.159725 0.212078 0.964112 -0.432091 0.248722 0.866853 -0.432091 0.248722 0.866853 -0.432091 0.248722 0.866853 -0.486893 0.707098 0.512784 -0.486893 0.707098 0.512784 -0.486893 0.707098 0.512784 -0.675883 0.64055 0.364524 -0.675883 0.64055 0.364524 -0.675883 0.64055 0.364524 -0.894134 -0.385609 0.227664 -0.894134 -0.385609 0.227664 -0.894134 -0.385609 0.227664 0.676721 -0.722466 -0.141749 0.676721 -0.722466 -0.141749 0.676721 -0.722466 -0.141749 0.952309 -0.284909 -0.10925 0.952309 -0.284909 -0.10925 0.952309 -0.284909 -0.10925 -0.380649 -0.910164 0.163423 -0.380649 -0.910164 0.163423 -0.380649 -0.910164 0.163423 0.147778 -0.986456 0.0711843 0.147778 -0.986456 0.0711843 0.147778 -0.986456 0.0711843 -0.99484 0.011211 0.100832 -0.99484 0.011211 0.100832 -0.99484 0.011211 0.100832 -0.80114 -0.569081 0.185263 -0.80114 -0.569081 0.185263 -0.80114 -0.569081 0.185263 -0.338892 0.935842 0.096707 -0.338892 0.935842 0.096707 -0.338892 0.935842 0.096707 -0.804373 0.580331 0.127282 -0.804373 0.580331 0.127282 -0.804373 0.580331 0.127282 0.89886 0.418855 0.128887 0.89886 0.418855 0.128887 0.89886 0.418855 0.128887 0.334663 0.93774 0.0929788 0.334663 0.93774 0.0929788 0.334663 0.93774 0.0929788 0.142308 0.00897354 0.989782 0.142308 0.00897354 0.989782 0.142308 0.00897354 0.989782 -0.561018 0.594035 0.576525 -0.561018 0.594035 0.576525 -0.561018 0.594035 0.576525 0.136585 0.617419 0.774686 0.136585 0.617419 0.774686 0.136585 0.617419 0.774686 0.634045 0.255606 0.72983 0.634045 0.255606 0.72983 0.634045 0.255606 0.72983 0.606421 0.380794 0.698033 0.606421 0.380794 0.698033 0.606421 0.380794 0.698033 -0.895679 0.444093 0.0232511 -0.895679 0.444093 0.0232511 -0.895679 0.444093 0.0232511 -0.915937 -0.0169095 0.400965 -0.915937 -0.0169095 0.400965 -0.915937 -0.0169095 0.400965 -0.730494 0.682691 -0.0176739 -0.730494 0.682691 -0.0176739 -0.730494 0.682691 -0.0176739 0.584028 -0.811725 -0.00381821 0.584028 -0.811725 -0.00381821 0.584028 -0.811725 -0.00381821 -0.574084 -0.156045 0.80379 -0.574084 -0.156045 0.80379 -0.574084 -0.156045 0.80379 -0.646488 -0.426226 0.63276 -0.646488 -0.426226 0.63276 -0.646488 -0.426226 0.63276 -0.584687 -0.536808 0.608259 -0.584687 -0.536808 0.608259 -0.584687 -0.536808 0.608259 -0.279371 0.635094 0.720144 -0.279371 0.635094 0.720144 -0.279371 0.635094 0.720144 -0.719079 0.363407 0.592335 -0.719079 0.363407 0.592335 -0.719079 0.363407 0.592335 -0.877911 -0.118035 0.464047 -0.877911 -0.118035 0.464047 -0.877911 -0.118035 0.464047 0.138598 0.14986 0.978945 0.138598 0.14986 0.978945 0.138598 0.14986 0.978945 0.420386 0.818184 0.392239 0.420386 0.818184 0.392239 0.420386 0.818184 0.392239 0.999534 0.0148856 0.0266403 0.999534 0.0148856 0.0266403 0.999534 0.0148856 0.0266403 -0.0955913 -0.700713 0.707011 -0.0955913 -0.700713 0.707011 -0.0955913 -0.700713 0.707011 -0.83494 -0.387405 0.390887 -0.83494 -0.387405 0.390887 -0.83494 -0.387405 0.390887 -0.062754 0.854923 0.514945 -0.062754 0.854923 0.514945 -0.062754 0.854923 0.514945 0.613991 0.699947 0.364815 0.613991 0.699947 0.364815 0.613991 0.699947 0.364815 0.801795 0.435246 0.409495 0.801795 0.435246 0.409495 0.801795 0.435246 0.409495 -0.774391 0.460816 0.433552 -0.774391 0.460816 0.433552 -0.774391 0.460816 0.433552 0.27611 -0.103687 0.955517 0.27611 -0.103687 0.955517 0.27611 -0.103687 0.955517 -0.513321 -0.224166 0.828403 -0.513321 -0.224166 0.828403 -0.513321 -0.224166 0.828403 -0.601342 -0.686996 0.407951 -0.601342 -0.686996 0.407951 -0.601342 -0.686996 0.407951 0.422322 -0.168309 0.890683 0.422322 -0.168309 0.890683 0.422322 -0.168309 0.890683 -0.0939339 0.84646 0.524102 -0.0939339 0.84646 0.524102 -0.0939339 0.84646 0.524102 -0.186868 0.841623 0.506706 -0.186868 0.841623 0.506706 -0.186868 0.841623 0.506706 0.646437 -0.463437 0.606091 0.646437 -0.463437 0.606091 0.646437 -0.463437 0.606091 0.152476 -0.926254 0.344679 0.152476 -0.926254 0.344679 0.152476 -0.926254 0.344679 -0.403737 0.282177 0.870271 -0.403737 0.282177 0.870271 -0.403737 0.282177 0.870271 0.469292 -0.463575 0.751574 0.469292 -0.463575 0.751574 0.469292 -0.463575 0.751574 -0.266098 0.699153 0.66361 -0.266098 0.699153 0.66361 -0.266098 0.699153 0.66361 -0.727777 0.483434 0.486448 -0.727777 0.483434 0.486448 -0.727777 0.483434 0.486448 0.142242 0.0316824 0.989325 0.142242 0.0316824 0.989325 0.142242 0.0316824 0.989325 -0.126184 -0.125123 0.984084 -0.126184 -0.125123 0.984084 -0.126184 -0.125123 0.984084 -0.184629 0.0760739 0.97986 -0.184629 0.0760739 0.97986 -0.184629 0.0760739 0.97986 -0.141357 0.280327 0.949439 -0.141357 0.280327 0.949439 -0.141357 0.280327 0.949439 0.351072 -0.234869 0.906413 0.351072 -0.234869 0.906413 0.351072 -0.234869 0.906413 -0.0372689 -0.456125 0.889135 -0.0372689 -0.456125 0.889135 -0.0372689 -0.456125 0.889135 -0.0798896 -0.212321 0.973929 -0.0798896 -0.212321 0.973929 -0.0798896 -0.212321 0.973929 0.592173 0.655067 0.469275 0.592173 0.655067 0.469275 0.592173 0.655067 0.469275 0.372307 0.86969 0.324078 0.372307 0.86969 0.324078 0.372307 0.86969 0.324078 0.994272 -0.104871 0.0206162 0.994272 -0.104871 0.0206162 0.994272 -0.104871 0.0206162 -0.305273 -0.952262 -0.00245231 -0.305273 -0.952262 -0.00245231 -0.305273 -0.952262 -0.00245231 0.586435 -0.809987 -0.0038175 0.586435 -0.809987 -0.0038175 0.586435 -0.809987 -0.0038175 0.922373 -0.386169 0.0100014 0.922373 -0.386169 0.0100014 0.922373 -0.386169 0.0100014 -0.580283 0.812802 0.0512389 -0.580283 0.812802 0.0512389 -0.580283 0.812802 0.0512389 -0.753606 0.616821 0.227179 -0.753606 0.616821 0.227179 -0.753606 0.616821 0.227179 -0.913774 0.404893 0.0328436 -0.913774 0.404893 0.0328436 -0.913774 0.404893 0.0328436 0.128543 0.991674 0.0076834 0.128543 0.991674 0.0076834 0.128543 0.991674 0.0076834 -0.532992 0.844433 -0.0534022 -0.532992 0.844433 -0.0534022 -0.532992 0.844433 -0.0534022 0.973653 -0.228032 0.00123632 0.973653 -0.228032 0.00123632 0.973653 -0.228032 0.00123632 -0.957305 0.259849 0.126671 -0.957305 0.259849 0.126671 -0.957305 0.259849 0.126671 -0.733264 0.679718 -0.0175278 -0.733264 0.679718 -0.0175278 -0.733264 0.679718 -0.0175278 0.51143 -0.854341 0.0924203 0.51143 -0.854341 0.0924203 0.51143 -0.854341 0.0924203 0.961833 -0.271684 0.0326353 0.961833 -0.271684 0.0326353 0.961833 -0.271684 0.0326353 -0.778114 0.62807 -0.008138 -0.778114 0.62807 -0.008138 -0.778114 0.62807 -0.008138 -0.418307 0.90737 0.0412285 -0.418307 0.90737 0.0412285 -0.418307 0.90737 0.0412285 0.13996 0.987656 0.0703396 0.13996 0.987656 0.0703396 0.13996 0.987656 0.0703396 0.268178 0.486895 0.831272 0.268178 0.486895 0.831272 0.268178 0.486895 0.831272 0.584516 -0.811382 0.000353446 0.584516 -0.811382 0.000353446 0.584516 -0.811382 0.000353446 -0.995585 0.00305182 0.0938099 -0.995585 0.00305182 0.0938099 -0.995585 0.00305182 0.0938099 0.94028 0.338005 0.0403259 0.94028 0.338005 0.0403259 0.94028 0.338005 0.0403259 0.559757 -0.828043 0.0318879 0.559757 -0.828043 0.0318879 0.559757 -0.828043 0.0318879 0.887487 0.460795 0.00595575 0.887487 0.460795 0.00595575 0.887487 0.460795 0.00595575 -0.797488 0.598637 0.075144 -0.797488 0.598637 0.075144 -0.797488 0.598637 0.075144 -0.722717 0.686335 0.0813849 -0.722717 0.686335 0.0813849 -0.722717 0.686335 0.0813849 0.911923 -0.410056 -0.0158203 0.911923 -0.410056 -0.0158203 0.911923 -0.410056 -0.0158203 0.592162 -0.801337 0.0848746 0.592162 -0.801337 0.0848746 0.592162 -0.801337 0.0848746 0.989236 -0.145796 0.0124464 0.989236 -0.145796 0.0124464 0.989236 -0.145796 0.0124464 0.0529385 -0.997646 0.0435825 0.0529385 -0.997646 0.0435825 0.0529385 -0.997646 0.0435825 0.586435 -0.809987 -0.0038175 0.586435 -0.809987 -0.0038175 0.586435 -0.809987 -0.0038175 0.936623 -0.350327 -0.0030489 0.936623 -0.350327 -0.0030489 0.936623 -0.350327 -0.0030489 0.981174 -0.18979 0.0357331 0.981174 -0.18979 0.0357331 0.981174 -0.18979 0.0357331 -0.605698 0.788156 0.109276 -0.605698 0.788156 0.109276 -0.605698 0.788156 0.109276 0.51143 -0.854341 0.0924203 0.51143 -0.854341 0.0924203 0.51143 -0.854341 0.0924203 0.760851 -0.642027 0.0943795 0.760851 -0.642027 0.0943795 0.760851 -0.642027 0.0943795 -0.966663 -0.247896 0.0641042 -0.966663 -0.247896 0.0641042 -0.966663 -0.247896 0.0641042 0.592162 -0.801337 0.0848746 0.592162 -0.801337 0.0848746 0.592162 -0.801337 0.0848746 -0.716777 0.697272 -0.00651956 -0.716777 0.697272 -0.00651956 -0.716777 0.697272 -0.00651956 -0.693689 0.719951 -0.0215973 -0.693689 0.719951 -0.0215973 -0.693689 0.719951 -0.0215973 -0.895774 0.442921 -0.0375593 -0.895774 0.442921 -0.0375593 -0.895774 0.442921 -0.0375593 -0.414442 0.898034 0.147558 -0.414442 0.898034 0.147558 -0.414442 0.898034 0.147558 -0.919347 0.393208 0.0137077 -0.919347 0.393208 0.0137077 -0.919347 0.393208 0.0137077 -0.113851 0.990888 0.0719599 -0.113851 0.990888 0.0719599 -0.113851 0.990888 0.0719599 -0.895774 0.443021 0.0363634 -0.895774 0.443021 0.0363634 -0.895774 0.443021 0.0363634 -0.782823 0.622006 0.0172155 -0.782823 0.622006 0.0172155 -0.782823 0.622006 0.0172155 -0.816153 0.577458 0.0209108 -0.816153 0.577458 0.0209108 -0.816153 0.577458 0.0209108 -0.0354938 -0.994667 0.0968421 -0.0354938 -0.994667 0.0968421 -0.0354938 -0.994667 0.0968421 -0.951318 0.080385 0.297544 -0.951318 0.080385 0.297544 -0.951318 0.080385 0.297544 -0.9524 0.0646482 0.297917 -0.9524 0.0646482 0.297917 -0.9524 0.0646482 0.297917 -0.825136 -0.212986 0.523248 -0.825136 -0.212986 0.523248 -0.825136 -0.212986 0.523248 0.0046069 0.321846 0.946781 0.0046069 0.321846 0.946781 0.0046069 0.321846 0.946781 0.112011 0.947532 0.299395 0.112011 0.947532 0.299395 0.112011 0.947532 0.299395 -0.98672 -0.148926 0.0648434 -0.98672 -0.148926 0.0648434 -0.98672 -0.148926 0.0648434 0.127931 -0.990456 0.0512945 0.127931 -0.990456 0.0512945 0.127931 -0.990456 0.0512945 -0.146141 0.988587 0.036571 -0.146141 0.988587 0.036571 -0.146141 0.988587 0.036571 -0.450285 0.879575 0.153593 -0.450285 0.879575 0.153593 -0.450285 0.879575 0.153593 -0.50052 0.865718 -0.00362897 -0.50052 0.865718 -0.00362897 -0.50052 0.865718 -0.00362897 -0.751081 0.657861 0.0556409 -0.751081 0.657861 0.0556409 -0.751081 0.657861 0.0556409 0.913282 0.395862 0.0959631 0.913282 0.395862 0.0959631 0.913282 0.395862 0.0959631 0.972332 -0.228969 0.0462923 0.972332 -0.228969 0.0462923 0.972332 -0.228969 0.0462923 -0.129373 0.980259 0.149513 -0.129373 0.980259 0.149513 -0.129373 0.980259 0.149513 -0.722717 0.686335 0.0813849 -0.722717 0.686335 0.0813849 -0.722717 0.686335 0.0813849 0.990036 -0.137101 0.0321087 0.990036 -0.137101 0.0321087 0.990036 -0.137101 0.0321087 -0.566299 0.821729 0.0637708 -0.566299 0.821729 0.0637708 -0.566299 0.821729 0.0637708 </float_array>
     <technique_common>
      <accessor source="#ID8-array" count="852" stride="3">
       <param name="X" type="float"/>
       <param name="Y" type="float"/>
       <param name="Z" type="float"/>
      </accessor>
     </technique_common>
    </source>
    <source id="Icosphere-mesh-colors">
     <float_array id="ID9-array" count="3408">1 1 1 1 1 1 1 1 1 1 1 1 1 1 1 1 1 1 1 1 1 1 1 1 1 1 1 1 1 1 1 1 1 1 1 1 1 1 1 1 1 1 1 1 1 1 1 1 1 1 1 1 1 1 1 1 1 1 1 1 1 1 1 1 1 1 1 1 1 1 1 1 1 1 1 1 1 1 1 1 1 1 1 1 1 1 1 1 1 1 1 1 1 1 1 1 1 1 1 1 1 1 1 1 1 1 1 1 0.156863 0.164706 0.505882 1 0.156863 0.164706 0.505882 1 0.156863 0.164706 0.505882 1 1 1 1 1 1 1 1 1 1 1 1 1 1 1 1 1 1 1 1 1 1 1 1 1 1 1 1 1 1 1 1 1 1 1 1 1 1 1 1 1 1 1 1 1 1 1 1 1 1 1 1 1 1 1 1 1 1 1 1 1 1 1 1 1 1 1 1 1 1 1 1 1 1 1 1 1 1 1 1 1 1 1 1 1 1 1 1 1 1 1 1 1 1 1 1 1 1 1 1 1 1 1 1 1 1 1 1 1 1 1 1 1 1 1 1 1 1 1 1 1 0.156863 0.164706 0.505882 1 0.156863 0.164706 0.505882 1 0.156863 0.164706 0.505882 1 1 1 1 1 1 1 1 1 1 1 1 1 1 1 1 1 1 1 1 1 1 1 1 1 1 1 1 1 1 1 1 1 1 1 1 1 1 1 1 1 1 1 1 1 1 1 1 1 1 1 1 1 1 1 1 1 1 1 1 1 1 1 1 1 1 1 1 1 1 1 1 1 1 1 1 1 1 1 1 1 1 1 1 1 1 1 1 1 1 1 1 1 1 1 1 1 1 1 1 1 1 1 1 1 1 1 1 1 1 1 1 1 1 1 1 1 1 1 1 1 1 1 1 1 1 1 1 1 1 1 1 1 1 1 1 1 1 1 1 1 1 1 1 1 1 1 1 1 1 1 1 1 1 1 1 1 1 1 1 1 1 1 1 1 1 1 1 1 1 1 1 1 1 1 1 1 1 1 1 1 1 1 1 1 1 1 1 1 1 1 1 1 1 1 1 1 1 1 1 1 1 1 1 1 1 1 1 1 1 1 1 1 1 1 1 1 1 1 1 1 1 1 1 1 1 1 1 1 1 1 1 1 1 1 1 1 1 1 1 1 1 1 1 1 1 1 1 1 1 1 1 1 1 1 1 1 1 1 1 1 1 1 1 1 1 1 1 1 1 1 1 1 1 1 1 1 1 1 1 1 1 1 1 1 1 1 1 1 1 1 1 1 1 1 1 1 1 1 1 1 1 1 1 1 1 1 1 1 1 1 1 1 1 1 1 1 1 1 1 1 1 1 1 1 1 1 1 1 1 1 1 1 1 1 1 1 1 1 1 1 1 1 1 1 1 1 1 1 1 1 1 1 1 1 1 1 1 1 1 1 1 1 1 1 1 1 1 1 1 1 1 1 1 1 1 1 1 1 1 1 1 1 1 1 1 1 1 1 1 1 1 1 1 1 1 1 1 1 1 1 1 1 1 1 1 1 1 1 1 1 1 1 1 1 1 1 1 1 1 1 1 1 1 1 1 1 1 1 1 1 1 1 0.156863 0.164706 0.505882 1 0.156863 0.164706 0.505882 1 0.156863 0.164706 0.505882 1 1 1 1 1 1 1 1 1 1 1 1 1 1 1 1 1 1 1 1 1 1 1 1 1 1 1 1 1 1 1 1 1 1 1 1 1 1 1 1 1 1 1 1 1 1 1 1 1 1 1 1 1 1 1 1 1 1 1 1 1 1 1 1 1 1 1 1 1 1 1 1 1 1 1 1 1 1 1 1 1 1 1 1 1 1 1 1 1 1 1 1 1 1 1 1 1 1 1 1 1 1 1 1 1 1 1 1 1 1 1 1 1 1 1 1 1 1 1 1 1 1 1 1 1 1 1 1 1 1 1 1 1 1 1 1 1 1 1 1 1 1 1 1 1 1 1 1 1 1 1 1 1 1 1 1 1 1 1 1 1 1 1 1 1 1 1 1 1 1 1 1 1 1 1 1 1 1 1 1 1 1 1 1 1 1 1 1 1 1 1 1 1 1 1 1 1 1 1 1 1 1 1 1 1 1 1 1 1 1 1 1 1 1 1 1 1 1 1 1 1 1 1 1 1 1 1 1 1 1 1 1 1 1 1 1 1 1 1 1 1 1 1 1 1 1 1 1 1 1 1 1 1 1 1 1 1 1 1 1 1 1 1 1 1 1 1 1 1 1 1 1 1 1 1 1 1 1 1 1 1 1 1 1 1 1 1 1 1 1 1 1 1 1 1 1 1 1 1 1 1 1 1 1 1 1 1 1 1 1 1 1 1 1 1 1 1 1 1 1 1 1 1 1 1 1 1 1 1 1 1 1 1 1 1 1 1 0.156863 0.164706 0.505882 1 0.156863 0.164706 0.505882 1 0.156863 0.164706 0.505882 1 1 1 1 1 1 1 1 1 1 1 1 1 1 1 1 1 1 1 1 1 1 1 1 1 1 1 1 1 1 1 1 1 1 1 1 1 1 1 1 1 1 1 1 1 1 1 1 1 1 1 1 1 1 1 1 1 1 1 1 1 1 1 1 1 1 1 1 1 1 1 1 1 0.156863 0.164706 0.505882 1 0.156863 0.164706 0.505882 1 0.156863 0.164706 0.505882 1 1 1 1 1 1 1 1 1 1 1 1 1 1 1 1 1 1 1 1 1 1 1 1 1 1 1 1 1 1 1 1 1 1 1 1 1 0.156863 0.164706 0.505882 1 0.156863 0.164706 0.505882 1 0.156863 0.164706 0.505882 1 1 1 1 1 1 1 1 1 1 1 1 1 1 1 1 1 1 1 1 1 1 1 1 1 1 1 1 1 1 1 1 1 1 1 1 1 1 1 1 1 1 1 1 1 1 1 1 1 1 1 1 1 1 1 1 1 1 1 1 1 1 1 1 1 1 1 1 1 1 1 1 1 1 1 1 1 1 1 1 1 1 1 1 1 1 1 1 1 1 1 1 1 1 1 1 1 1 1 1 1 1 1 1 1 1 1 1 1 0.156863 0.164706 0.505882 1 0.156863 0.164706 0.505882 1 0.156863 0.164706 0.505882 1 1 1 1 1 1 1 1 1 1 1 1 1 0.156863 0.164706 0.505882 1 0.156863 0.164706 0.505882 1 0.156863 0.164706 0.505882 1 1 1 1 1 1 1 1 1 1 1 1 1 1 1 1 1 1 1 1 1 1 1 1 1 1 1 1 1 1 1 1 1 1 1 1 1 1 1 1 1 1 1 1 1 1 1 1 1 0.156863 0.164706 0.505882 1 0.156863 0.164706 0.505882 1 0.156863 0.164706 0.505882 1 1 1 1 1 1 1 1 1 1 1 1 1 1 1 1 1 1 1 1 1 1 1 1 1 1 1 1 1 1 1 1 1 1 1 1 1 1 1 1 1 1 1 1 1 1 1 1 1 1 1 1 1 1 1 1 1 1 1 1 1 1 1 1 1 1 1 1 1 1 1 1 1 1 1 1 1 1 1 1 1 1 1 1 1 1 1 1 1 1 1 1 1 1 1 1 1 1 1 1 1 1 1 1 1 1 1 1 1 0.156863 0.164706 0.505882 1 0.156863 0.164706 0.505882 1 0.156863 0.164706 0.505882 1 1 1 1 1 1 1 1 1 1 1 1 1 1 1 1 1 1 1 1 1 1 1 1 1 1 1 1 1 1 1 1 1 1 1 1 1 1 1 1 1 1 1 1 1 1 1 1 1 1 1 1 1 1 1 1 1 1 1 1 1 0.156863 0.164706 0.505882 1 0.156863 0.164706 0.505882 1 0.156863 0.164706 0.505882 1 1 1 1 1 1 1 1 1 1 1 1 1 1 1 1 1 1 1 1 1 1 1 1 1 1 1 1 1 1 1 1 1 1 1 1 1 1 1 1 1 1 1 1 1 1 1 1 1 1 1 1 1 1 1 1 1 1 1 1 1 0.156863 0.164706 0.505882 1 0.156863 0.164706 0.505882 1 0.156863 0.164706 0.505882 1 1 1 1 1 1 1 1 1 1 1 1 1 1 1 1 1 1 1 1 1 1 1 1 1 1 1 1 1 1 1 1 1 1 1 1 1 1 1 1 1 1 1 1 1 1 1 1 1 1 1 1 1 1 1 1 1 1 1 1 1 1 1 1 1 1 1 1 1 1 1 1 1 1 1 1 1 1 1 1 1 1 1 1 1 1 1 1 1 1 1 1 1 1 1 1 1 1 1 1 1 1 1 1 1 1 1 1 1 1 1 1 1 1 1 1 1 1 1 1 1 1 1 1 1 1 1 1 1 1 1 1 1 1 1 1 1 1 1 1 1 1 1 1 1 1 1 1 1 1 1 1 1 1 1 1 1 1 1 1 1 1 1 1 1 1 1 1 1 1 1 1 1 1 1 1 1 1 1 1 1 1 1 1 1 1 1 1 1 1 1 1 1 1 1 1 1 1 1 1 1 1 1 1 1 1 1 1 1 1 1 1 1 1 1 1 1 1 1 1 1 1 1 1 1 1 1 1 1 1 1 1 1 1 1 1 1 1 1 1 1 1 1 1 1 1 1 1 1 1 1 1 1 1 1 1 1 1 1 1 1 1 1 1 1 1 1 1 1 1 1 1 1 1 1 1 1 1 1 1 1 1 1 1 1 1 1 1 1 1 1 1 1 1 1 1 1 1 1 1 1 1 1 1 1 1 1 1 1 1 1 1 1 1 1 1 1 1 1 1 1 1 1 1 1 1 1 1 1 1 1 1 1 1 1 1 1 1 1 1 1 1 1 1 1 1 1 1 1 1 1 1 1 1 1 1 1 1 1 1 1 1 1 1 1 1 1 1 1 1 1 1 1 1 1 1 1 1 1 1 1 1 1 1 1 1 1 1 1 1 1 1 1 1 1 1 1 1 1 1 1 1 1 1 1 1 1 1 1 1 1 1 1 1 1 1 1 1 1 1 1 1 1 1 1 1 1 1 1 1 1 1 1 1 1 1 1 1 1 1 1 1 1 1 1 1 1 1 1 1 1 1 1 1 1 1 1 1 1 1 1 1 1 1 1 1 1 1 1 1 1 1 1 1 1 1 1 1 1 1 1 1 1 1 1 1 1 1 1 1 1 1 1 1 1 1 1 1 1 1 1 1 1 1 1 1 1 1 1 1 1 1 1 1 1 1 1 1 1 1 1 1 1 1 1 1 1 1 1 1 1 1 1 1 1 1 1 1 1 1 1 1 1 1 1 1 1 1 1 1 1 1 1 1 1 1 1 1 1 1 1 1 1 1 1 1 1 1 1 1 1 1 1 1 1 1 1 1 1 1 1 1 1 1 1 1 1 1 1 1 1 1 1 1 1 1 1 1 1 1 1 1 1 1 1 1 1 1 1 1 1 1 1 1 1 1 1 1 1 1 1 1 1 1 1 1 1 1 1 1 1 1 1 1 1 1 1 1 1 1 1 1 1 1 1 1 1 1 1 1 1 1 1 1 1 1 1 1 1 1 1 1 1 1 1 1 1 1 1 1 1 1 1 1 1 1 1 1 1 1 1 1 1 1 1 1 1 1 1 1 1 1 1 1 1 1 1 1 1 1 1 1 1 1 1 1 1 1 1 1 1 1 1 1 1 1 1 1 1 1 1 1 1 1 1 1 1 1 1 1 1 1 1 1 1 1 1 1 1 1 1 1 1 1 1 1 1 1 1 1 1 1 1 1 1 1 1 1 1 1 1 1 1 1 1 1 1 1 1 1 1 1 1 1 1 1 1 1 1 1 1 1 1 1 1 1 1 1 1 1 1 1 1 1 1 1 1 1 1 1 1 1 1 1 1 1 1 1 1 1 1 1 1 1 1 1 1 1 1 1 1 1 1 1 1 1 1 1 1 1 1 1 1 1 1 1 1 1 1 1 1 1 1 1 1 1 1 1 1 1 1 1 1 1 1 1 1 1 1 1 1 1 1 1 1 1 1 1 1 1 1 1 1 1 1 1 1 1 1 1 1 1 1 1 1 1 1 1 1 1 1 1 1 1 1 1 1 1 1 1 1 1 1 1 1 1 1 1 1 1 1 1 1 1 1 1 1 1 1 1 1 1 1 1 1 1 1 1 1 1 1 1 1 1 1 1 1 1 1 1 1 1 1 1 1 1 1 1 1 1 1 1 1 1 1 1 1 1 1 1 1 1 1 1 1 1 1 1 1 1 1 1 1 1 1 1 1 1 1 1 1 1 1 1 1 1 1 1 1 1 1 1 1 1 1 1 1 1 1 1 1 1 1 1 1 1 1 1 1 1 1 1 1 1 1 1 1 1 1 1 1 1 1 1 1 1 1 1 1 1 1 1 1 1 1 1 1 1 1 1 1 1 1 1 1 1 1 1 1 1 1 1 1 1 1 1 1 1 1 1 1 1 1 1 1 1 1 1 1 1 1 1 1 1 1 1 1 1 1 1 1 1 1 1 1 1 1 1 1 1 1 1 1 1 1 1 1 1 1 1 1 1 1 1 1 1 1 1 1 1 1 1 1 1 1 1 1 1 1 1 1 1 1 1 1 1 1 1 1 1 1 1 1 1 1 1 1 1 1 1 1 1 1 1 1 1 1 1 1 1 1 1 1 1 1 1 1 1 1 1 1 1 1 1 1 0.980392 0.984314 1 1 0.980392 0.984314 1 1 0.980392 0.984314 1 1 1 1 1 1 1 1 1 1 1 1 1 1 1 1 1 1 1 1 1 1 1 1 1 1 1 1 1 1 1 1 1 1 1 1 1 1 1 1 1 1 1 1 1 1 1 1 1 1 1 1 1 1 1 1 1 1 1 1 1 1 1 1 1 1 1 1 1 1 1 1 1 1 1 1 1 1 1 1 1 1 1 1 1 1 1 1 1 1 1 1 1 1 1 1 1 1 1 1 1 1 1 1 1 1 1 1 1 1 1 1 1 1 1 1 1 1 1 1 1 1 1 1 1 1 1 1 1 1 1 1 1 1 1 1 1 1 1 1 1 1 1 1 1 1 1 1 1 1 1 1 1 1 1 1 1 1 1 1 1 1 1 1 1 1 1 1 1 1 1 1 1 1 1 1 1 1 1 1 1 1 1 1 1 1 1 1 1 1 1 1 1 1 1 1 1 1 1 1 1 1 1 1 1 1 1 1 1 1 1 1 1 1 1 1 1 1 1 1 1 1 1 1 1 1 1 1 1 1 1 1 1 1 1 1 1 1 1 1 1 1 1 1 1 1 1 1 1 1 1 1 1 1 1 1 1 1 1 1 1 1 1 1 1 1 1 1 1 1 1 1 1 1 1 1 1 1 1 1 1 1 1 1 1 1 1 1 1 1 1 1 1 1 1 1 1 1 1 1 1 1 0.980392 0.984314 1 1 0.980392 0.984314 1 1 0.980392 0.984314 1 1 1 1 1 1 1 1 1 1 1 1 1 1 1 1 1 1 1 1 1 1 1 1 1 1 0.980392 0.984314 1 1 0.980392 0.984314 1 1 0.980392 0.984314 1 1 1 1 1 1 1 1 1 1 1 1 1 1 1 1 1 1 1 1 1 1 1 1 1 1 1 1 1 1 1 1 1 1 1 1 1 1 1 1 1 1 1 1 1 1 1 1 1 1 0.156863 0.164706 0.505882 1 0.156863 0.164706 0.505882 1 0.156863 0.164706 0.505882 1 1 1 1 1 1 1 1 1 1 1 1 1 1 1 1 1 1 1 1 1 1 1 1 1 1 1 1 1 1 1 1 1 1 1 1 1 1 1 1 1 1 1 1 1 1 1 1 1 1 1 1 1 1 1 1 1 1 1 1 1 1 1 1 1 1 1 1 1 1 1 1 1 0.156863 0.164706 0.505882 1 0.156863 0.164706 0.505882 1 0.156863 0.164706 0.505882 1 1 1 1 1 1 1 1 1 1 1 1 1 0.741176 0.752941 1 1 0.741176 0.752941 1 1 0.741176 0.752941 1 1 1 1 1 1 1 1 1 1 1 1 1 1 1 1 1 1 1 1 1 1 1 1 1 1 1 1 1 1 1 1 1 1 1 1 1 1 0.156863 0.164706 0.505882 1 0.156863 0.164706 0.505882 1 0.156863 0.164706 0.505882 1 1 1 1 1 1 1 1 1 1 1 1 1 1 1 1 1 1 1 1 1 1 1 1 1 </float_array>
     <technique_common>
      <accessor source="#ID9-array" count="852" stride="4">
       <param name="R" type="float"/>
       <param name="G" type="float"/>
       <param name="B" type="float"/>
       <param name="A" type="float"/>
      </accessor>
     </technique_common>
    </source>
    <source id="Icosphere-mesh-map-0">
     <float_array id="ID10-array" count="1704">0.314284 0.7041 0.267369 0.763303 0.241066 0.720557 0.156106 0.866529 0.190335 0.849516 0.228378 0.889547 0.314284 0.7041 0.241066 0.720557 0.347421 0.656898 0.314284 0.7041 0.347421 0.656898 0.415126 0.708977 0.314284 0.7041 0.415126 0.708977 0.353137 0.754374 0.228378 0.889547 0.301143 0.903927 0.177427 0.91627 0.0834169 0.684265 0.0848711 0.74933 0.0145707 0.668972 0.252576 0.507271 0.201307 0.529581 0.215319 0.453509 0.527058 0.594492 0.473588 0.539814 0.571965 0.562515 0.497959 0.834626 0.531904 0.773387 0.521778 0.882227 0.156106 0.866529 0.177427 0.91627 0.0651227 0.793291 0.0819189 0.619871 0.0145707 0.668972 0.100095 0.547689 0.322594 0.485934 0.215319 0.453509 0.436949 0.458434 0.54737 0.644746 0.571965 0.562515 0.579906 0.710335 0.448234 0.879876 0.521778 0.882227 0.405404 0.950613 0.897658 0.735179 0.902813 0.675117 0.914544 0.728788 0.509426 0.270413 0.542791 0.21216 0.574714 0.231612 0.670449 0.3718 0.622748 0.356338 0.68581 0.321524 0.81319 0.325317 0.785008 0.320817 0.817251 0.290025 0.665308 0.674335 0.717039 0.668724 0.68238 0.722441 0.16656 0.704623 0.129712 0.70141 0.12117 0.639152 0.16656 0.704623 0.19452 0.733133 0.129712 0.70141 0.216681 0.82009 0.190335 0.849516 0.145736 0.785558 0.301143 0.903927 0.34725 0.856244 0.374854 0.891874 0.301143 0.903927 0.261401 0.873229 0.34725 0.856244 0.216681 0.82009 0.267369 0.763303 0.308291 0.808882 0.284718 0.580014 0.239486 0.611825 0.277174 0.528768 0.284718 0.580014 0.263121 0.666783 0.239486 0.611825 0.16656 0.704623 0.12117 0.639152 0.208115 0.646204 0.456859 0.676965 0.497824 0.608986 0.513771 0.660067 0.456859 0.676965 0.396439 0.624081 0.497824 0.608986 0.284718 0.580014 0.277174 0.528768 0.410026 0.558582 0.39374 0.808167 0.463348 0.790645 0.421161 0.84425 0.39374 0.808167 0.432677 0.749078 0.463348 0.790645 0.456859 0.676965 0.513771 0.660067 0.492808 0.720897 0.177427 0.91627 0.405404 0.950613 0.27307 0.94629 0.177427 0.91627 0.301143 0.903927 0.405404 0.950613 0.374854 0.891874 0.448234 0.879876 0.405404 0.950613 0.0145707 0.668972 0.0651227 0.793291 0.0322547 0.769039 0.0145707 0.668972 0.0848711 0.74933 0.0651227 0.793291 0.118879 0.796348 0.156106 0.866529 0.0651227 0.793291 0.507619 0.345776 0.425602 0.247332 0.509426 0.270413 0.215319 0.453509 0.201307 0.529581 0.100095 0.547689 0.160913 0.575226 0.0819189 0.619871 0.100095 0.547689 0.710371 0.445334 0.589631 0.445334 0.670449 0.3718 0.571965 0.562515 0.473588 0.539814 0.436949 0.458434 0.396744 0.515004 0.322594 0.485934 0.436949 0.458434 0.921597 0.348118 0.820215 0.415885 0.81319 0.325317 0.521778 0.882227 0.531904 0.773387 0.579906 0.710335 0.539627 0.70873 0.54737 0.644746 0.579906 0.710335 0.0322547 0.769039 0.0651227 0.793291 0.0652193 0.851011 0.0651227 0.793291 0.177427 0.91627 0.130931 0.900939 0.130931 0.900939 0.177427 0.91627 0.198899 0.957916 0.509426 0.270413 0.425602 0.247332 0.542791 0.21216 0.425602 0.247332 0.393594 0.14125 0.535571 0.147919 0.535571 0.147919 0.393594 0.14125 0.554475 0.0428314 0.670449 0.3718 0.589631 0.445334 0.622748 0.356338 0.589631 0.445334 0.507619 0.345776 0.578138 0.351652 0.578138 0.351652 0.507619 0.345776 0.570723 0.284783 0.81319 0.325317 0.820215 0.415885 0.785008 0.320817 0.820215 0.415885 0.710371 0.445334 0.756728 0.348949 0.756728 0.348949 0.710371 0.445334 0.707446 0.375453 0.902813 0.675117 0.942043 0.671881 0.930234 0.684569 0.986756 0.26632 0.921597 0.348118 0.865027 0.244103 0.865027 0.244103 0.921597 0.348118 0.857034 0.297162 0.666015 0.107976 0.737333 0.115602 0.686071 0.142686 0.666015 0.107976 0.734646 0.0624276 0.737333 0.115602 0.262958 0.124378 0.292018 0.146327 0.253674 0.166613 0.616921 0.226387 0.630249 0.166501 0.653471 0.211039 0.616921 0.226387 0.603448 0.153249 0.630249 0.166501 0.535571 0.147919 0.554475 0.0428314 0.573977 0.118686 0.689019 0.289145 0.654164 0.259538 0.70586 0.238654 0.689019 0.289145 0.640108 0.300513 0.654164 0.259538 0.578138 0.351652 0.570723 0.284783 0.60816 0.268198 0.774987 0.26508 0.732237 0.281136 0.769072 0.231806 0.774987 0.26508 0.772066 0.306701 0.732237 0.281136 0.756728 0.348949 0.707446 0.375453 0.725342 0.318534 0.807453 0.149142 0.807832 0.230669 0.778245 0.161752 0.807453 0.149142 0.843232 0.194275 0.807832 0.230669 0.865027 0.244103 0.857034 0.297162 0.833355 0.249802 0.241066 0.720557 0.19452 0.733133 0.16656 0.704623 0.241066 0.720557 0.267369 0.763303 0.19452 0.733133 0.267369 0.763303 0.216681 0.82009 0.19452 0.733133 0.228378 0.889547 0.261401 0.873229 0.301143 0.903927 0.228378 0.889547 0.190335 0.849516 0.261401 0.873229 0.190335 0.849516 0.216681 0.82009 0.261401 0.873229 0.347421 0.656898 0.263121 0.666783 0.284718 0.580014 0.347421 0.656898 0.241066 0.720557 0.263121 0.666783 0.241066 0.720557 0.16656 0.704623 0.263121 0.666783 0.415126 0.708977 0.396439 0.624081 0.456859 0.676965 0.415126 0.708977 0.347421 0.656898 0.396439 0.624081 0.347421 0.656898 0.284718 0.580014 0.396439 0.624081 0.353137 0.754374 0.432677 0.749078 0.39374 0.808167 0.353137 0.754374 0.415126 0.708977 0.432677 0.749078 0.415126 0.708977 0.456859 0.676965 0.432677 0.749078 0.156106 0.866529 0.228378 0.889547 0.177427 0.91627 0.0819189 0.619871 0.0834169 0.684265 0.0145707 0.668972 0.322594 0.485934 0.252576 0.507271 0.215319 0.453509 0.54737 0.644746 0.527058 0.594492 0.571965 0.562515 0.448234 0.879876 0.497959 0.834626 0.521778 0.882227 0.12117 0.639152 0.0834169 0.684265 0.0819189 0.619871 0.12117 0.639152 0.129712 0.70141 0.0834169 0.684265 0.129712 0.70141 0.0848711 0.74933 0.0834169 0.684265 0.129712 0.70141 0.145736 0.785558 0.0848711 0.74933 0.129712 0.70141 0.19452 0.733133 0.145736 0.785558 0.19452 0.733133 0.216681 0.82009 0.145736 0.785558 0.145736 0.785558 0.118879 0.796348 0.0848711 0.74933 0.145736 0.785558 0.190335 0.849516 0.118879 0.796348 0.190335 0.849516 0.156106 0.866529 0.118879 0.796348 0.374854 0.891874 0.421161 0.84425 0.448234 0.879876 0.374854 0.891874 0.34725 0.856244 0.421161 0.84425 0.34725 0.856244 0.39374 0.808167 0.421161 0.84425 0.34725 0.856244 0.308291 0.808882 0.39374 0.808167 0.34725 0.856244 0.261401 0.873229 0.308291 0.808882 0.261401 0.873229 0.216681 0.82009 0.308291 0.808882 0.308291 0.808882 0.353137 0.754374 0.39374 0.808167 0.308291 0.808882 0.267369 0.763303 0.353137 0.754374 0.267369 0.763303 0.314284 0.7041 0.353137 0.754374 0.277174 0.528768 0.252576 0.507271 0.322594 0.485934 0.277174 0.528768 0.239486 0.611825 0.252576 0.507271 0.239486 0.611825 0.201307 0.529581 0.252576 0.507271 0.239486 0.611825 0.208115 0.646204 0.201307 0.529581 0.239486 0.611825 0.263121 0.666783 0.208115 0.646204 0.263121 0.666783 0.16656 0.704623 0.208115 0.646204 0.208115 0.646204 0.160913 0.575226 0.201307 0.529581 0.208115 0.646204 0.12117 0.639152 0.160913 0.575226 0.12117 0.639152 0.0819189 0.619871 0.160913 0.575226 0.513771 0.660067 0.527058 0.594492 0.54737 0.644746 0.513771 0.660067 0.497824 0.608986 0.527058 0.594492 0.497824 0.608986 0.473588 0.539814 0.527058 0.594492 0.497824 0.608986 0.410026 0.558582 0.473588 0.539814 0.497824 0.608986 0.396439 0.624081 0.410026 0.558582 0.396439 0.624081 0.284718 0.580014 0.410026 0.558582 0.410026 0.558582 0.396744 0.515004 0.473588 0.539814 0.410026 0.558582 0.277174 0.528768 0.396744 0.515004 0.277174 0.528768 0.322594 0.485934 0.396744 0.515004 0.421161 0.84425 0.497959 0.834626 0.448234 0.879876 0.421161 0.84425 0.463348 0.790645 0.497959 0.834626 0.463348 0.790645 0.531904 0.773387 0.497959 0.834626 0.463348 0.790645 0.492808 0.720897 0.531904 0.773387 0.463348 0.790645 0.432677 0.749078 0.492808 0.720897 0.432677 0.749078 0.456859 0.676965 0.492808 0.720897 0.492808 0.720897 0.539627 0.70873 0.531904 0.773387 0.492808 0.720897 0.513771 0.660067 0.539627 0.70873 0.513771 0.660067 0.54737 0.644746 0.539627 0.70873 0.301143 0.903927 0.374854 0.891874 0.405404 0.950613 0.0848711 0.74933 0.118879 0.796348 0.0651227 0.793291 0.201307 0.529581 0.160913 0.575226 0.100095 0.547689 0.473588 0.539814 0.396744 0.515004 0.436949 0.458434 0.531904 0.773387 0.539627 0.70873 0.579906 0.710335 0.65821 0.0706712 0.734646 0.0624276 0.666015 0.107976 0.124678 0.107919 0.166362 0.108804 0.154156 0.130349 0.166362 0.108804 0.21169 0.126586 0.163805 0.126176 0.574714 0.231612 0.603448 0.153249 0.616921 0.226387 0.574714 0.231612 0.542791 0.21216 0.603448 0.153249 0.542791 0.21216 0.535571 0.147919 0.603448 0.153249 0.68581 0.321524 0.640108 0.300513 0.689019 0.289145 0.68581 0.321524 0.622748 0.356338 0.640108 0.300513 0.622748 0.356338 0.578138 0.351652 0.640108 0.300513 0.817251 0.290025 0.772066 0.306701 0.774987 0.26508 0.817251 0.290025 0.785008 0.320817 0.772066 0.306701 0.785008 0.320817 0.756728 0.348949 0.772066 0.306701 0.87719 0.111301 0.843232 0.194275 0.807453 0.149142 0.87719 0.111301 0.917033 0.214183 0.843232 0.194275 0.917033 0.214183 0.865027 0.244103 0.843232 0.194275 0.0651227 0.793291 0.130931 0.900939 0.0652193 0.851011 0.177427 0.91627 0.27307 0.94629 0.198899 0.957916 0.425602 0.247332 0.535571 0.147919 0.542791 0.21216 0.619071 0.673824 0.665308 0.674335 0.65112 0.702249 0.589631 0.445334 0.578138 0.351652 0.622748 0.356338 0.507619 0.345776 0.509426 0.270413 0.570723 0.284783 0.820215 0.415885 0.756728 0.348949 0.785008 0.320817 0.710371 0.445334 0.670449 0.3718 0.707446 0.375453 0.986756 0.26632 0.865027 0.244103 0.917033 0.214183 0.921597 0.348118 0.81319 0.325317 0.857034 0.297162 0.686071 0.142686 0.778245 0.161752 0.710382 0.202805 0.686071 0.142686 0.737333 0.115602 0.778245 0.161752 0.737333 0.115602 0.807453 0.149142 0.778245 0.161752 0.737333 0.115602 0.802996 0.0984572 0.807453 0.149142 0.737333 0.115602 0.734646 0.0624276 0.802996 0.0984572 0.0659938 0.129759 0.0541064 0.0799127 0.154156 0.130349 0.802996 0.0984572 0.87719 0.111301 0.807453 0.149142 0.193133 0.137275 0.21169 0.126586 0.220644 0.147247 0.717039 0.668724 0.716501 0.730028 0.68238 0.722441 0.653471 0.211039 0.686071 0.142686 0.710382 0.202805 0.653471 0.211039 0.630249 0.166501 0.686071 0.142686 0.630249 0.166501 0.666015 0.107976 0.686071 0.142686 0.630249 0.166501 0.605697 0.0986701 0.666015 0.107976 0.630249 0.166501 0.603448 0.153249 0.605697 0.0986701 0.605697 0.0986701 0.603448 0.153249 0.573977 0.118686 0.605697 0.0986701 0.65821 0.0706712 0.666015 0.107976 0.293687 0.133906 0.292018 0.146327 0.262958 0.124378 0.902813 0.675117 0.930234 0.684569 0.914544 0.728788 0.70586 0.238654 0.653471 0.211039 0.710382 0.202805 0.70586 0.238654 0.654164 0.259538 0.653471 0.211039 0.654164 0.259538 0.616921 0.226387 0.653471 0.211039 0.654164 0.259538 0.60816 0.268198 0.616921 0.226387 0.654164 0.259538 0.640108 0.300513 0.60816 0.268198 0.640108 0.300513 0.578138 0.351652 0.60816 0.268198 0.60816 0.268198 0.574714 0.231612 0.616921 0.226387 0.60816 0.268198 0.570723 0.284783 0.574714 0.231612 0.570723 0.284783 0.509426 0.270413 0.574714 0.231612 0.769072 0.231806 0.70586 0.238654 0.710382 0.202805 0.769072 0.231806 0.732237 0.281136 0.70586 0.238654 0.732237 0.281136 0.689019 0.289145 0.70586 0.238654 0.732237 0.281136 0.725342 0.318534 0.689019 0.289145 0.732237 0.281136 0.772066 0.306701 0.725342 0.318534 0.772066 0.306701 0.756728 0.348949 0.725342 0.318534 0.725342 0.318534 0.68581 0.321524 0.689019 0.289145 0.725342 0.318534 0.707446 0.375453 0.68581 0.321524 0.707446 0.375453 0.670449 0.3718 0.68581 0.321524 0.778245 0.161752 0.769072 0.231806 0.710382 0.202805 0.778245 0.161752 0.807832 0.230669 0.769072 0.231806 0.807832 0.230669 0.774987 0.26508 0.769072 0.231806 0.807832 0.230669 0.833355 0.249802 0.774987 0.26508 0.807832 0.230669 0.843232 0.194275 0.833355 0.249802 0.843232 0.194275 0.865027 0.244103 0.833355 0.249802 0.833355 0.249802 0.817251 0.290025 0.774987 0.26508 0.833355 0.249802 0.857034 0.297162 0.817251 0.290025 0.857034 0.297162 0.81319 0.325317 0.817251 0.290025 0.902813 0.675117 0.897658 0.735179 0.854948 0.709894 0.665308 0.674335 0.68238 0.722441 0.664968 0.730962 0.717039 0.668724 0.770185 0.67109 0.770554 0.734639 0.770185 0.67109 0.857055 0.678619 0.854948 0.709894 0.21169 0.126586 0.262958 0.124378 0.253674 0.166613 0.0541064 0.0799127 0.124678 0.107919 0.154156 0.130349 0.21169 0.126586 0.193133 0.137275 0.163805 0.126176 0.166362 0.108804 0.163805 0.126176 0.154156 0.130349 0.292018 0.146327 0.290626 0.170191 0.253674 0.166613 0.897658 0.735179 0.881788 0.74926 0.86659 0.748567 0.0845724 0.145393 0.0659938 0.129759 0.154156 0.130349 0.0845724 0.145393 0.154156 0.130349 0.128517 0.15812 0.716501 0.730028 0.770554 0.734639 0.775149 0.766108 0.770554 0.734639 0.854948 0.709894 0.827871 0.793697 0.203238 0.17319 0.253674 0.166613 0.215315 0.209175 0.169852 0.260475 0.159348 0.190492 0.175931 0.164309 0.154156 0.130349 0.163805 0.126176 0.159348 0.190492 0.290626 0.170191 0.268247 0.180996 0.253674 0.166613 0.709201 0.764239 0.742141 0.762635 0.72377 0.830584 0.775149 0.766108 0.827871 0.793697 0.810475 0.825048 0.72377 0.830584 0.742141 0.762635 0.744755 0.807528 0.742141 0.762635 0.775149 0.766108 0.782583 0.85354 0.782583 0.85354 0.775149 0.766108 0.810475 0.825048 0.159348 0.190492 0.139265 0.208143 0.128517 0.15812 0.127854 0.192668 0.116313 0.177016 0.128517 0.15812 0.68238 0.722441 0.709201 0.764239 0.72377 0.830584 0.716501 0.730028 0.742141 0.762635 0.709201 0.764239 0.857055 0.678619 0.902813 0.675117 0.854948 0.709894 0.65112 0.702249 0.665308 0.674335 0.664968 0.730962 0.716501 0.730028 0.717039 0.668724 0.770554 0.734639 0.770554 0.734639 0.770185 0.67109 0.854948 0.709894 0.827871 0.793697 0.854948 0.709894 0.86659 0.748567 0.0979407 0.162045 0.0845724 0.145393 0.128517 0.15812 0.742141 0.762635 0.716501 0.730028 0.775149 0.766108 0.775149 0.766108 0.770554 0.734639 0.827871 0.793697 0.253674 0.166613 0.268247 0.180996 0.218793 0.246994 0.68238 0.722441 0.716501 0.730028 0.709201 0.764239 0.193133 0.137275 0.220644 0.147247 0.175931 0.164309 0.128517 0.15812 0.154156 0.130349 0.159348 0.190492 0.21169 0.126586 0.253674 0.166613 0.220644 0.147247 0.218793 0.246994 0.20711 0.223584 0.215315 0.209175 0.163805 0.126176 0.193133 0.137275 0.175931 0.164309 0.159348 0.190492 0.163805 0.126176 0.175931 0.164309 0.169852 0.260475 0.175931 0.164309 0.194097 0.222839 0.175931 0.164309 0.220644 0.147247 0.203238 0.17319 0.220644 0.147247 0.253674 0.166613 0.203238 0.17319 0.619071 0.673824 0.65112 0.702249 0.635755 0.699718 0.573977 0.118686 0.587051 0.0141533 0.605697 0.0986701 0.573977 0.118686 0.554475 0.0428314 0.587051 0.0141533 0.312453 0.13754 0.292018 0.146327 0.293687 0.133906 0.603448 0.153249 0.535571 0.147919 0.573977 0.118686 0.605697 0.0986701 0.587051 0.0141533 0.65821 0.0706712 0.253674 0.166613 0.218793 0.246994 0.215315 0.209175 0.742141 0.762635 0.782583 0.85354 0.744755 0.807528 0.215315 0.209175 0.194097 0.222839 0.203238 0.17319 0.215315 0.209175 0.20711 0.223584 0.194097 0.222839 0.20711 0.223584 0.169852 0.260475 0.194097 0.222839 0.175931 0.164309 0.203238 0.17319 0.194097 0.222839 0.86659 0.748567 0.85147 0.806486 0.827871 0.793697 0.86659 0.748567 0.881788 0.74926 0.85147 0.806486 0.881788 0.74926 0.885898 0.793069 0.85147 0.806486 0.139265 0.208143 0.127854 0.192668 0.128517 0.15812 0.854948 0.709894 0.897658 0.735179 0.86659 0.748567 0.116313 0.177016 0.0979407 0.162045 0.128517 0.15812 </float_array>
     <technique_common>
      <accessor source="#ID10-array" count="852" stride="2">
       <param name="S" type="float"/>
       <param name="T" type="float"/>
      </accessor>
     </technique_common>
    </source>
    <vertices id="Icosphere-mesh-positions-vertices">
     <input semantic="POSITION" source="#Icosphere-mesh-positions"/>
    </vertices>
    <triangles count="284" material="geometryElement11">
     <input semantic="VERTEX" offset="0" source="#Icosphere-mesh-positions-vertices"/>
     <input semantic="NORMAL" offset="0" source="#Icosphere-mesh-normals"/>
     <input semantic="COLOR" offset="0" source="#Icosphere-mesh-colors"/>
     <input semantic="TEXCOORD" offset="0" source="#Icosphere-mesh-map-0" set="1"/>
     <p>0 1 2 3 4 5 6 7 8 9 10 11 12 13 14 15 16 17 18 19 20 21 22 23 24 25 26 27 28 29 30 31 32 33 34 35 36 37 38 39 40 41 42 43 44 45 46 47 48 49 50 51 52 53 54 55 56 57 58 59 60 61 62 63 64 65 66 67 68 69 70 71 72 73 74 75 76 77 78 79 80 81 82 83 84 85 86 87 88 89 90 91 92 93 94 95 96 97 98 99 100 101 102 103 104 105 106 107 108 109 110 111 112 113 114 115 116 117 118 119 120 121 122 123 124 125 126 127 128 129 130 131 132 133 134 135 136 137 138 139 140 141 142 143 144 145 146 147 148 149 150 151 152 153 154 155 156 157 158 159 160 161 162 163 164 165 166 167 168 169 170 171 172 173 174 175 176 177 178 179 180 181 182 183 184 185 186 187 188 189 190 191 192 193 194 195 196 197 198 199 200 201 202 203 204 205 206 207 208 209 210 211 212 213 214 215 216 217 218 219 220 221 222 223 224 225 226 227 228 229 230 231 232 233 234 235 236 237 238 239 240 241 242 243 244 245 246 247 248 249 250 251 252 253 254 255 256 257 258 259 260 261 262 263 264 265 266 267 268 269 270 271 272 273 274 275 276 277 278 279 280 281 282 283 284 285 286 287 288 289 290 291 292 293 294 295 296 297 298 299 300 301 302 303 304 305 306 307 308 309 310 311 312 313 314 315 316 317 318 319 320 321 322 323 324 325 326 327 328 329 330 331 332 333 334 335 336 337 338 339 340 341 342 343 344 345 346 347 348 349 350 351 352 353 354 355 356 357 358 359 360 361 362 363 364 365 366 367 368 369 370 371 372 373 374 375 376 377 378 379 380 381 382 383 384 385 386 387 388 389 390 391 392 393 394 395 396 397 398 399 400 401 402 403 404 405 406 407 408 409 410 411 412 413 414 415 416 417 418 419 420 421 422 423 424 425 426 427 428 429 430 431 432 433 434 435 436 437 438 439 440 441 442 443 444 445 446 447 448 449 450 451 452 453 454 455 456 457 458 459 460 461 462 463 464 465 466 467 468 469 470 471 472 473 474 475 476 477 478 479 480 481 482 483 484 485 486 487 488 489 490 491 492 493 494 495 496 497 498 499 500 501 502 503 504 505 506 507 508 509 510 511 512 513 514 515 516 517 518 519 520 521 522 523 524 525 526 527 528 529 530 531 532 533 534 535 536 537 538 539 540 541 542 543 544 545 546 547 548 549 550 551 552 553 554 555 556 557 558 559 560 561 562 563 564 565 566 567 568 569 570 571 572 573 574 575 576 577 578 579 580 581 582 583 584 585 586 587 588 589 590 591 592 593 594 595 596 597 598 599 600 601 602 603 604 605 606 607 608 609 610 611 612 613 614 615 616 617 618 619 620 621 622 623 624 625 626 627 628 629 630 631 632 633 634 635 636 637 638 639 640 641 642 643 644 645 646 647 648 649 650 651 652 653 654 655 656 657 658 659 660 661 662 663 664 665 666 667 668 669 670 671 672 673 674 675 676 677 678 679 680 681 682 683 684 685 686 687 688 689 690 691 692 693 694 695 696 697 698 699 700 701 702 703 704 705 706 707 708 709 710 711 712 713 714 715 716 717 718 719 720 721 722 723 724 725 726 727 728 729 730 731 732 733 734 735 736 737 738 739 740 741 742 743 744 745 746 747 748 749 750 751 752 753 754 755 756 757 758 759 760 761 762 763 764 765 766 767 768 769 770 771 772 773 774 775 776 777 778 779 780 781 782 783 784 785 786 787 788 789 790 791 792 793 794 795 796 797 798 799 800 801 802 803 804 805 806 807 808 809 810 811 812 813 814 815 816 817 818 819 820 821 822 823 824 825 826 827 828 829 830 831 832 833 834 835 836 837 838 839 840 841 842 843 844 845 846 847 848 849 850 851 </p>
    </triangles>
   </mesh>
  </geometry>
  <geometry id="Plane_010-mesh" name="Plane_010">
   <mesh>
    <source id="Plane_010-mesh-positions">
     <float_array id="ID12-array" count="108">-1 -6.65393 0 1 4.96567 0 1 -6.65393 0 -1 4.96567 0 1 4.96567 0 -1 -6.65393 0 -1 -6.65393 0.202047 1 -6.65393 0.202047 1 4.96567 0.202047 -1 4.96567 0.202047 -1 -6.65393 0.202047 1 4.96567 0.202047 1 -6.65393 0 1 4.96567 0 1 4.96567 0.202047 -1 4.96567 0 -1 -6.65393 0 -1 -6.65393 0.202047 -1 -6.65393 0 1 -6.65393 0 1 -6.65393 0.202047 1 4.96567 0 -1 4.96567 0 -1 4.96567 0.202047 1 -6.65393 0.202047 1 -6.65393 0 1 4.96567 0.202047 -1 4.96567 0.202047 -1 4.96567 0 -1 -6.65393 0.202047 -1 -6.65393 0.202047 -1 -6.65393 0 1 -6.65393 0.202047 1 4.96567 0.202047 1 4.96567 0 -1 4.96567 0.202047 </float_array>
     <technique_common>
      <accessor source="#ID12-array" count="36" stride="3">
       <param name="X" type="float"/>
       <param name="Y" type="float"/>
       <param name="Z" type="float"/>
      </accessor>
     </technique_common>
    </source>
    <source id="Plane_010-mesh-normals">
     <float_array id="ID13-array" count="108">0 0 -1 0 0 -1 0 0 -1 0 0 -1 0 0 -1 0 0 -1 0 0 1 0 0 1 0 0 1 0 0 1 0 0 1 0 0 1 1 0 0 1 0 0 1 0 0 -1 0 0 -1 0 0 -1 0 0 0 -1 0 0 -1 0 0 -1 0 0 1 0 0 1 0 0 1 0 1 0 0 1 0 0 1 0 0 -1 0 0 -1 0 0 -1 0 0 0 -1 0 0 -1 0 0 -1 0 0 1 0 0 1 0 0 1 0 </float_array>
     <technique_common>
      <accessor source="#ID13-array" count="36" stride="3">
       <param name="X" type="float"/>
       <param name="Y" type="float"/>
       <param name="Z" type="float"/>
      </accessor>
     </technique_common>
    </source>
    <source id="Plane_010-mesh-colors">
     <float_array id="ID14-array" count="144">1 1 1 1 1 1 1 1 1 1 1 1 1 1 1 1 1 1 1 1 1 1 1 1 1 1 1 1 1 1 1 1 1 1 1 1 1 1 1 1 1 1 1 1 1 1 1 1 1 1 1 1 1 1 1 1 1 1 1 1 1 1 1 1 1 1 1 1 1 1 1 1 1 1 1 1 1 1 1 1 1 1 1 1 1 1 1 1 1 1 1 1 1 1 1 1 1 1 1 1 1 1 1 1 1 1 1 1 1 1 1 1 1 1 1 1 1 1 1 1 1 1 1 1 1 1 1 1 1 1 1 1 1 1 1 1 1 1 1 1 1 1 1 1 </float_array>
     <technique_common>
      <accessor source="#ID14-array" count="36" stride="4">
       <param name="R" type="float"/>
       <param name="G" type="float"/>
       <param name="B" type="float"/>
       <param name="A" type="float"/>
      </accessor>
     </technique_common>
    </source>
    <source id="Plane_010-mesh-map-0">
     <float_array id="ID15-array" count="72">0.316851 0.45489 0.744359 0.506672 0.28427 0.481679 0.724463 0.474405 0.744359 0.506672 0.316851 0.45489 0.842788 0.321297 0.791358 0.382095 0.220393 0.388687 0.166943 0.330637 0.842788 0.321297 0.220393 0.388687 0.28427 0.481679 0.744359 0.506672 0.772263 0.521396 0.170472 0.321345 0.839078 0.311866 0.842788 0.321297 0.316851 0.45489 0.28427 0.481679 0.252862 0.49026 0.744359 0.506672 0.724463 0.474405 0.739913 0.465279 0.252862 0.49026 0.28427 0.481679 0.772263 0.521396 0.166943 0.330637 0.170472 0.321345 0.842788 0.321297 0.298688 0.449284 0.316851 0.45489 0.252862 0.49026 0.772263 0.521396 0.744359 0.506672 0.739913 0.465279 </float_array>
     <technique_common>
      <accessor source="#ID15-array" count="36" stride="2">
       <param name="S" type="float"/>
       <param name="T" type="float"/>
      </accessor>
     </technique_common>
    </source>
    <vertices id="Plane_010-mesh-positions-vertices">
     <input semantic="POSITION" source="#Plane_010-mesh-positions"/>
    </vertices>
    <triangles count="12" material="geometryElement16">
     <input semantic="VERTEX" offset="0" source="#Plane_010-mesh-positions-vertices"/>
     <input semantic="NORMAL" offset="0" source="#Plane_010-mesh-normals"/>
     <input semantic="COLOR" offset="0" source="#Plane_010-mesh-colors"/>
     <input semantic="TEXCOORD" offset="0" source="#Plane_010-mesh-map-0" set="1"/>
     <p>0 1 2 3 4 5 6 7 8 9 10 11 12 13 14 15 16 17 18 19 20 21 22 23 24 25 26 27 28 29 30 31 32 33 34 35 </p>
    </triangles>
   </mesh>
  </geometry>
  <geometry id="Cube-mesh" name="Cube">
   <mesh>
    <source id="Cube-mesh-positions">
     <float_array id="ID17-array" count="108">-1 -1 1 -1 1 1 -1 1 -1 -1 1 1 1 1 1 1 1 -1 1 1 1 1 -1 1 1 -1 -1 1 -1 1 -1 -1 1 -1 -1 -1 -1 -1 -1 -1 1 -1 1 1 -1 1 -1 1 1 1 1 -1 1 1 -1 -1 -1 -1 -1 1 -1 1 -1 -1 1 -1 -1 1 1 1 1 -1 1 1 -1 1 1 1 1 -1 -1 1 -1 -1 1 -1 1 -1 -1 -1 1 -1 -1 -1 -1 -1 1 1 -1 -1 -1 1 1 -1 1 -1 1 1 </float_array>
     <technique_common>
      <accessor source="#ID17-array" count="36" stride="3">
       <param name="X" type="float"/>
       <param name="Y" type="float"/>
       <param name="Z" type="float"/>
      </accessor>
     </technique_common>
    </source>
    <source id="Cube-mesh-normals">
     <float_array id="ID18-array" count="108">-1 0 0 -1 0 0 -1 0 0 0 1 0 0 1 0 0 1 0 1 0 0 1 0 0 1 0 0 0 -1 0 0 -1 0 0 -1 0 0 0 -1 0 0 -1 0 0 -1 0 0 1 0 0 1 0 0 1 -1 0 0 -1 0 0 -1 0 0 0 1 0 0 1 0 0 1 0 1 0 0 1 0 0 1 0 0 0 -1 0 0 -1 0 0 -1 0 0 0 -1 0 0 -1 0 0 -1 0 0 1 0 0 1 0 0 1 </float_array>
     <technique_common>
      <accessor source="#ID18-array" count="36" stride="3">
       <param name="X" type="float"/>
       <param name="Y" type="float"/>
       <param name="Z" type="float"/>
      </accessor>
     </technique_common>
    </source>
    <source id="Cube-mesh-map-0">
     <float_array id="ID19-array" count="72">0.251055 0.605044 0.251055 0.85165 0.00444967 0.85165 0.49766 0.605044 0.49766 0.358439 0.744265 0.358439 0.251055 0.111834 0.251055 0.358439 0.00444955 0.358439 0.251055 0.358439 0.251055 0.605044 0.00444955 0.605044 0.990871 0.605044 0.744266 0.605044 0.744265 0.358439 0.251055 0.358439 0.49766 0.358439 0.49766 0.605044 0.00444955 0.605044 0.251055 0.605044 0.00444967 0.85165 0.744266 0.605044 0.49766 0.605044 0.744265 0.358439 0.00444949 0.111834 0.251055 0.111834 0.00444955 0.358439 0.00444955 0.358439 0.251055 0.358439 0.00444955 0.605044 0.990871 0.358439 0.990871 0.605044 0.744265 0.358439 0.251055 0.605044 0.251055 0.358439 0.49766 0.605044 </float_array>
     <technique_common>
      <accessor source="#ID19-array" count="36" stride="2">
       <param name="S" type="float"/>
       <param name="T" type="float"/>
      </accessor>
     </technique_common>
    </source>
    <vertices id="Cube-mesh-positions-vertices">
     <input semantic="POSITION" source="#Cube-mesh-positions"/>
    </vertices>
    <triangles count="12" material="geometryElement20">
     <input semantic="VERTEX" offset="0" source="#Cube-mesh-positions-vertices"/>
     <input semantic="NORMAL" offset="0" source="#Cube-mesh-normals"/>
     <input semantic="TEXCOORD" offset="0" source="#Cube-mesh-map-0" set="1"/>
     <p>0 1 2 3 4 5 6 7 8 9 10 11 12 13 14 15 16 17 18 19 20 21 22 23 24 25 26 27 28 29 30 31 32 33 34 35 </p>
    </triangles>
   </mesh>
  </geometry>
 </library_geometries>
 <library_visual_scenes>
  <visual_scene id="scene21">
   <node id="Camera" name="Camera">
    <matrix>0.9999225 0.006722271 0.01046727 -0.9914914 -0.008834734 0.9761109 0.2170925 6.439946 -0.008757866 -0.2171682 0.9760948 14.5983 0 0 0 1 </matrix>
    <instance_camera url="#Camera-camera"/>
   </node>
   <node id="Lamp" name="Lamp">
    <matrix>-0.9553362 0.1994452 -0.2180697 7.790153 -0.05503698 0.6049293 0.7943746 7.554949 0.2903512 0.7708967 -0.566934 8.166351 0 0 0 1 </matrix>
    <instance_light url="#Lamp-light"/>
   </node>
   <node id="Slope" name="Slope">
    <matrix>0.000568149 -0.9999996 -0.000702395 -2.082399 -0.000524722 -0.000702693 0.9999996 -0.4648962 -0.9999997 -0.00056778 -0.000525121 -2.205146 0 0 0 1 </matrix>
    <instance_geometry url="#Plane_010-mesh">
     <bind_material>
      <technique_common>
       <instance_material symbol="geometryElement16" target="#slope-material">
        <bind_vertex_input semantic="CHANNEL2" input_semantic="TEXCOORD" input_set="1"/>
       </instance_material>
      </technique_common>
     </bind_material>
    </instance_geometry>
   </node>
   <node id="Cube" name="Cube">
    <matrix>0.000348642 -0.6136462 -8.50551e-09 -5.9 -0.000321994 -1.91446e-07 0.6136463 1.39 -0.6136461 -0.000348642 -0.000321994 -2.215202 0 0 0 1 </matrix>
    <instance_geometry url="#Cube-mesh">
     <bind_material>
      <technique_common>
       <instance_material symbol="geometryElement20" target="#cube-material">
        <bind_vertex_input semantic="CHANNEL2" input_semantic="TEXCOORD" input_set="1"/>
       </instance_material>
      </technique_common>
     </bind_material>
    </instance_geometry>
   </node>
   <node id="Point_002" name="Point_002">
    <matrix>0.000568149 -0.9999998 -1.38606e-08 -0.7461701 -0.000524722 -3.11981e-07 0.9999999 -10.87168 -0.9999997 -0.000568149 -0.000524722 -14.58746 0 0 0 1 </matrix>
    <instance_light url="#Point_002-light"/>
   </node>
   <node id="Point_003" name="Point_003">
    <matrix>0.000568149 -0.9999998 -1.38606e-08 -9.78021 -0.000524722 -3.11981e-07 0.9999999 7.453563 -0.9999997 -0.000568149 -0.000524722 -1.557355 0 0 0 1 </matrix>
    <instance_light url="#Point_003-light"/>
   </node>
   <node id="Point_004" name="Point_004">
    <matrix>0.000568149 -0.9999998 -1.38606e-08 -0.6363317 -0.000524722 -3.11981e-07 0.9999999 -6.080546 -0.9999997 -0.000568149 -0.000524722 9.710741 0 0 0 1 </matrix>
    <instance_light url="#Point_004-light"/>
   </node>
   <node id="iceberg" name="iceberg">
    <matrix>-2.188603 -6.972815 -7.62575e-08 -1.052165 -0.003154497 0.00133143 0.9711725 -1.231576 -6.01163 2.538533 -0.000509578 -2.141452 0 0 0 1 </matrix>
    <instance_geometry url="#Icosphere-mesh">
     <bind_material>
      <technique_common>
       <instance_material symbol="geometryElement11" target="#iceberg-material">
        <bind_vertex_input semantic="CHANNEL2" input_semantic="TEXCOORD" input_set="1"/>
       </instance_material>
      </technique_common>
     </bind_material>
    </instance_geometry>
   </node>
  </visual_scene>
 </library_visual_scenes>
 <scene>
  <instance_visual_scene url="#scene21"/>
 </scene>
</COLLADA>
